CA2022_lab1/codes/CPU.vcd
$date
	Tue Dec  6 15:13:01 2022
$end
$version
	Icarus Verilog
$end
$timescale
	1s
$end
$scope module TestBench $end
$var reg 1 ! Clk $end
$var reg 1 " Reset $end
$var reg 1 # Start $end
$var integer 32 $ counter [31:0] $end
$var integer 32 % flush [31:0] $end
$var integer 32 & i [31:0] $end
$var integer 32 ' outfile [31:0] $end
$var integer 32 ( stall [31:0] $end
$scope module CPU $end
$var wire 1 ! clk_i $end
$var wire 1 " rst_i $end
$var wire 1 # start_i $end
$var wire 1 ) Zero $end
$var wire 32 * WBWriteData1 [31:0] $end
$var wire 32 + WBWriteData0 [31:0] $end
$var wire 32 , WBWriteData [31:0] $end
$var wire 1 - WBRegWrite $end
$var wire 5 . WBRDaddr [4:0] $end
$var wire 1 / WBMemtoReg $end
$var wire 1 0 Stall $end
$var wire 1 1 PCWrite $end
$var wire 32 2 PCValueOld [31:0] $end
$var wire 32 3 PCValueNew [31:0] $end
$var wire 32 4 PCAM [31:0] $end
$var wire 1 5 NoOp $end
$var wire 1 6 MEMRegWrite $end
$var wire 32 7 MEMReadData [31:0] $end
$var wire 5 8 MEMRDaddr [4:0] $end
$var wire 1 9 MEMMemtoReg $end
$var wire 1 : MEMMemWrite $end
$var wire 1 ; MEMMemRead $end
$var wire 32 < MEMALUResult [31:0] $end
$var wire 32 = IFInst [31:0] $end
$var wire 1 > IDRegWrite $end
$var wire 32 ? IDRS2data [31:0] $end
$var wire 5 @ IDRS2addr [4:0] $end
$var wire 32 A IDRS1data [31:0] $end
$var wire 5 B IDRS1addr [4:0] $end
$var wire 5 C IDRDaddr [4:0] $end
$var wire 32 D IDPC [31:0] $end
$var wire 1 E IDMemtoReg $end
$var wire 1 F IDMemWrite $end
$var wire 1 G IDMemRead $end
$var wire 32 H IDInst [31:0] $end
$var wire 32 I IDImm [31:0] $end
$var wire 1 J IDALUSrc $end
$var wire 2 K IDALUOp [1:0] $end
$var wire 2 L ForwardB [1:0] $end
$var wire 2 M ForwardA [1:0] $end
$var wire 1 N Flush $end
$var wire 1 O EXRegWrite $end
$var wire 32 P EXRS2data [31:0] $end
$var wire 5 Q EXRS2addr [4:0] $end
$var wire 32 R EXRS1data [31:0] $end
$var wire 5 S EXRS1addr [4:0] $end
$var wire 5 T EXRDaddr [4:0] $end
$var wire 1 U EXMemtoReg $end
$var wire 1 V EXMemWrite $end
$var wire 1 W EXMemRead $end
$var wire 32 X EXImm [31:0] $end
$var wire 10 Y EXFucnt [9:0] $end
$var wire 1 Z EXALUSrc $end
$var wire 32 [ EXALUResult [31:0] $end
$var wire 2 \ EXALUOp [1:0] $end
$var wire 3 ] EXALUCtrl [2:0] $end
$var wire 32 ^ DMWriteData [31:0] $end
$var wire 32 _ BranchPC [31:0] $end
$var wire 1 ` Branch $end
$var wire 32 a ALUParameter3 [31:0] $end
$var wire 32 b ALUParameter2 [31:0] $end
$var wire 32 c ALUParameter1 [31:0] $end
$scope module ALU $end
$var wire 1 d Zero_o $end
$var wire 32 e data_o [31:0] $end
$var wire 32 f data2_i [31:0] $end
$var wire 32 g data1_i [31:0] $end
$var wire 3 h ALUCtrl_i [2:0] $end
$var reg 1 i Zero $end
$var reg 32 j data [31:0] $end
$upscope $end
$scope module ALU_Control $end
$var wire 3 k ALUCtrl_o [2:0] $end
$var wire 10 l Funct_i [9:0] $end
$var wire 2 m ALUOp_i [1:0] $end
$var reg 3 n ALUCtrl [2:0] $end
$upscope $end
$scope module AND1 $end
$var wire 1 N data_o $end
$var wire 1 ) data1_i $end
$var wire 1 ` data0_i $end
$upscope $end
$scope module Add_PC $end
$var wire 32 o data1_in [31:0] $end
$var wire 32 p data_o [31:0] $end
$var wire 32 q data2_in [31:0] $end
$upscope $end
$scope module Adder $end
$var wire 32 r data1_in [31:0] $end
$var wire 32 s data_o [31:0] $end
$var wire 32 t data2_in [31:0] $end
$upscope $end
$scope module Comparator $end
$var wire 1 ) data_o $end
$var wire 32 u data1_i [31:0] $end
$var wire 32 v data0_i [31:0] $end
$upscope $end
$scope module Control $end
$var wire 2 w ALUOp_o [1:0] $end
$var wire 1 J ALUSrc_o $end
$var wire 1 ` Branch_o $end
$var wire 1 G MemRead_o $end
$var wire 1 F MemWrite_o $end
$var wire 1 E MemtoReg_o $end
$var wire 7 x Op_i [6:0] $end
$var wire 1 > RegWrite_o $end
$var wire 1 5 NoOp_i $end
$var reg 2 y ALUOp [1:0] $end
$var reg 1 z ALUSrc $end
$var reg 1 ` Branch $end
$var reg 1 { MemRead $end
$var reg 1 | MemWrite $end
$var reg 1 } MemtoReg $end
$var reg 1 ~ RegWrite $end
$upscope $end
$scope module Data_Memory $end
$var wire 1 ! clk_i $end
$var wire 32 !" data_o [31:0] $end
$var wire 32 "" data_i [31:0] $end
$var wire 32 #" addr_i [31:0] $end
$var wire 1 : MemWrite_i $end
$var wire 1 ; MemRead_i $end
$upscope $end
$scope module EXMEM $end
$var wire 32 $" ALUResult_i [31:0] $end
$var wire 1 : MemWrite_o $end
$var wire 1 9 MemtoReg_o $end
$var wire 1 6 RegWrite_o $end
$var wire 32 %" WriteData_o [31:0] $end
$var wire 5 &" WriteReg_o [4:0] $end
$var wire 1 ! clk_i $end
$var wire 5 '" WriteReg_i [4:0] $end
$var wire 32 (" WriteData_i [31:0] $end
$var wire 1 O RegWrite_i $end
$var wire 1 U MemtoReg_i $end
$var wire 1 V MemWrite_i $end
$var wire 1 ; MemRead_o $end
$var wire 1 W MemRead_i $end
$var wire 32 )" ALUResult_o [31:0] $end
$var reg 32 *" ALUResult_r [31:0] $end
$var reg 1 ; MemRead_r $end
$var reg 1 +" MemWrite_r $end
$var reg 1 ," MemtoReg_r $end
$var reg 1 -" RegWrite_r $end
$var reg 32 ." WriteData_r [31:0] $end
$var reg 5 /" WriteReg_r [4:0] $end
$upscope $end
$scope module EXMUX $end
$var wire 32 0" data_o [31:0] $end
$var wire 32 1" data1_i [31:0] $end
$var wire 32 2" data0_i [31:0] $end
$var wire 1 Z ctrl_i $end
$var reg 32 3" data_r [31:0] $end
$upscope $end
$scope module ForwardingUnit $end
$var wire 2 4" ForwardA_o [1:0] $end
$var wire 2 5" ForwardB_o [1:0] $end
$var wire 5 6" MEMRd_i [4:0] $end
$var wire 1 6 MEMRegWrite_i $end
$var wire 1 - WBRegWrite_i $end
$var wire 5 7" WBRd_i [4:0] $end
$var wire 5 8" PRS2_i [4:0] $end
$var wire 5 9" PRS1_i [4:0] $end
$var reg 2 :" ForwardA_r [1:0] $end
$var reg 2 ;" ForwardB_r [1:0] $end
$upscope $end
$scope module Hazard_Detection $end
$var wire 1 5 NoOp_o $end
$var wire 1 1 PCWrite_o $end
$var wire 5 <" RS1addr_i [4:0] $end
$var wire 5 =" RS2addr_i [4:0] $end
$var wire 1 0 Stall_o $end
$var wire 5 >" PRD_i [4:0] $end
$var wire 1 W MemRead_i $end
$var reg 1 ?" NoOp_r $end
$var reg 1 @" PCWrite_r $end
$var reg 1 A" Stall_r $end
$upscope $end
$scope module IDEX $end
$var wire 2 B" ALUOp_i [1:0] $end
$var wire 2 C" ALUOp_o [1:0] $end
$var wire 1 J ALUSrc_i $end
$var wire 1 Z ALUSrc_o $end
$var wire 10 D" Funct_i [9:0] $end
$var wire 10 E" Funct_o [9:0] $end
$var wire 32 F" Imm_o [31:0] $end
$var wire 1 G MemRead_i $end
$var wire 1 W MemRead_o $end
$var wire 1 F MemWrite_i $end
$var wire 1 V MemWrite_o $end
$var wire 1 E MemtoReg_i $end
$var wire 1 U MemtoReg_o $end
$var wire 5 G" PRD_i [4:0] $end
$var wire 5 H" PRD_o [4:0] $end
$var wire 5 I" PRS1_i [4:0] $end
$var wire 5 J" PRS1_o [4:0] $end
$var wire 5 K" PRS2_i [4:0] $end
$var wire 5 L" PRS2_o [4:0] $end
$var wire 32 M" RS1data_o [31:0] $end
$var wire 32 N" RS2data_o [31:0] $end
$var wire 1 > RegWrite_i $end
$var wire 1 O RegWrite_o $end
$var wire 1 ! clk_i $end
$var wire 32 O" RS2data_i [31:0] $end
$var wire 32 P" RS1data_i [31:0] $end
$var wire 32 Q" Imm_i [31:0] $end
$var reg 2 R" ALUOp_r [1:0] $end
$var reg 1 S" ALUSrc_r $end
$var reg 10 T" Funct_r [9:0] $end
$var reg 32 U" Imm_r [31:0] $end
$var reg 1 V" MemRead_r $end
$var reg 1 W" MemWrite_r $end
$var reg 1 X" MemtoReg_r $end
$var reg 5 Y" PRD_r [4:0] $end
$var reg 5 Z" PRS1_r [4:0] $end
$var reg 5 [" PRS2_r [4:0] $end
$var reg 32 \" RS1data_r [31:0] $end
$var reg 32 ]" RS2data_r [31:0] $end
$var reg 1 ^" RegWrite_r $end
$upscope $end
$scope module IFID $end
$var wire 1 N Flush_i $end
$var wire 32 _" Inst_o [31:0] $end
$var wire 1 0 Stall_i $end
$var wire 1 ! clk_i $end
$var wire 32 `" pc_o [31:0] $end
$var wire 32 a" pc_i [31:0] $end
$var wire 32 b" Inst_i [31:0] $end
$var reg 32 c" Inst_R [31:0] $end
$var reg 32 d" pc_r [31:0] $end
$upscope $end
$scope module ImmGen $end
$var wire 32 e" data_i [31:0] $end
$var wire 32 f" data_o [31:0] $end
$var wire 10 g" funct [9:0] $end
$var reg 12 h" Imm12 [11:0] $end
$var reg 32 i" data [31:0] $end
$upscope $end
$scope module Instruction_Memory $end
$var wire 32 j" instr_o [31:0] $end
$var wire 32 k" addr_i [31:0] $end
$upscope $end
$scope module MEMWB $end
$var wire 32 l" ALUResult_i [31:0] $end
$var wire 32 m" ALUResult_o [31:0] $end
$var wire 1 9 MemtoReg_i $end
$var wire 1 / MemtoReg_o $end
$var wire 5 n" PRD_i [4:0] $end
$var wire 32 o" ReadData_i [31:0] $end
$var wire 32 p" ReadData_o [31:0] $end
$var wire 1 6 RegWrite_i $end
$var wire 1 ! clk_i $end
$var wire 1 - RegWrite_o $end
$var wire 5 q" PRD_o [4:0] $end
$var reg 32 r" ALUResult_r [31:0] $end
$var reg 1 s" MemtoReg_r $end
$var reg 5 t" PRD_r [4:0] $end
$var reg 32 u" ReadData_r [31:0] $end
$var reg 1 - RegWrite_r $end
$upscope $end
$scope module MUX2A $end
$var wire 32 v" ALUParameter_o [31:0] $end
$var wire 32 w" ALUResult_i [31:0] $end
$var wire 2 x" Forward_i [1:0] $end
$var wire 32 y" RSdata_i [31:0] $end
$var wire 32 z" WriteData_i [31:0] $end
$var reg 32 {" ALUParameter_r [31:0] $end
$upscope $end
$scope module MUX2B $end
$var wire 32 |" ALUParameter_o [31:0] $end
$var wire 32 }" ALUResult_i [31:0] $end
$var wire 2 ~" Forward_i [1:0] $end
$var wire 32 !# RSdata_i [31:0] $end
$var wire 32 "# WriteData_i [31:0] $end
$var reg 32 ## ALUParameter_r [31:0] $end
$upscope $end
$scope module PC $end
$var wire 1 1 PCWrite_i $end
$var wire 1 ! clk_i $end
$var wire 1 " rst_i $end
$var wire 1 # start_i $end
$var wire 32 $# pc_i [31:0] $end
$var reg 32 %# pc_o [31:0] $end
$upscope $end
$scope module PCMUX $end
$var wire 1 N ctrl_i $end
$var wire 32 &# data0_i [31:0] $end
$var wire 32 '# data1_i [31:0] $end
$var wire 32 (# data_o [31:0] $end
$var reg 32 )# data_r [31:0] $end
$upscope $end
$scope module Registers $end
$var wire 5 *# RDaddr_i [4:0] $end
$var wire 5 +# RS1addr_i [4:0] $end
$var wire 5 ,# RS2addr_i [4:0] $end
$var wire 1 - RegWrite_i $end
$var wire 1 ! clk_i $end
$var wire 32 -# RS2data_o [31:0] $end
$var wire 32 .# RS1data_o [31:0] $end
$var wire 32 /# RDdata_i [31:0] $end
$upscope $end
$scope module WBMUX $end
$var wire 1 / ctrl_i $end
$var wire 32 0# data0_i [31:0] $end
$var wire 32 1# data1_i [31:0] $end
$var wire 32 2# data_o [31:0] $end
$var reg 32 3# data_r [31:0] $end
$upscope $end
$upscope $end
$upscope $end
$enddefinitions $end
#0
$dumpvars
b0 3#
b0 2#
b0 1#
b0 0#
b0 /#
bx .#
bx -#
bx ,#
bx +#
b0 *#
b100 )#
b100 (#
bx '#
b100 &#
b0 %#
b100 $#
bx ##
b0 "#
bx !#
b0 ~"
bx }"
bx |"
bx {"
b0 z"
bx y"
b0 x"
bx w"
bx v"
b0 u"
b0 t"
0s"
b0 r"
b0 q"
b0 p"
b0 o"
b0 n"
b0 m"
bx l"
b0 k"
b110000010011 j"
b0xxxxxxxxxxxx i"
bx h"
bx g"
b0xxxxxxxxxxxx f"
bx e"
bx d"
bx c"
b110000010011 b"
b0 a"
bx `"
bx _"
0^"
bx ]"
bx \"
b0 ["
b0 Z"
b0 Y"
0X"
0W"
0V"
b0 U"
b0 T"
0S"
b0 R"
b0xxxxxxxxxxxx Q"
bx P"
bx O"
bx N"
bx M"
b0 L"
bx K"
b0 J"
bx I"
b0 H"
bx G"
b0 F"
b0 E"
bx D"
b0 C"
b0 B"
0A"
1@"
0?"
b0 >"
bx ="
bx <"
b0 ;"
b0 :"
b0 9"
b0 8"
b0 7"
b0 6"
b0 5"
b0 4"
bx 3"
bx 2"
b0 1"
bx 0"
b0 /"
bx ."
0-"
0,"
0+"
bx *"
bx )"
bx ("
b0 '"
b0 &"
bx %"
bx $"
bx #"
bx ""
b0 !"
0~
0}
0|
0{
0z
b0 y
bx x
b0 w
bx v
bx u
bx t
bx s
b0xxxxxxxxxxxx0 r
b0 q
b100 p
b100 o
b10 n
b0 m
b0 l
b10 k
bx j
xi
b10 h
bx g
bx f
bx e
xd
bx c
bx b
bx a
0`
bx _
bx ^
b10 ]
b0 \
bx [
0Z
b0 Y
b0 X
0W
0V
0U
b0 T
b0 S
bx R
b0 Q
bx P
0O
0N
b0 M
b0 L
b0 K
0J
b0xxxxxxxxxxxx I
bx H
0G
0F
0E
bx D
bx C
bx B
bx A
bx @
bx ?
0>
b110000010011 =
bx <
0;
0:
09
b0 8
b0 7
06
05
b100 4
b100 3
b0 2
11
00
0/
b0 .
0-
b0 ,
b0 +
b0 *
x)
b0 (
b11 '
b100000 &
b0 %
b0 $
0#
1"
1!
$end
#12
1#
0"
#25
0!
#50
1)
b0 _
b0 s
b0 '#
b0 r
1>
1~
1J
1z
b0 ?
b0 u
b0 O"
b0 -#
b0 A
b0 v
b0 P"
b0 .#
bx ,
bx z"
bx "#
bx /#
bx 2#
bx 3#
b0 I
b0 Q"
b0 f"
b0 i"
b0 h"
b10011 g"
b0 D"
b10011 x
b11000 C
b11000 G"
b0 @
b0 ="
b0 K"
b0 ,#
b0 B
b0 <"
b0 I"
b0 +#
b10000000000110100010011 =
b10000000000110100010011 b"
b10000000000110100010011 j"
b1000 3
b1000 $#
b1000 (#
b1000 )#
bx +
bx m"
bx 0#
bx r"
bx Y
bx l
bx E"
bx T"
bx T
bx '"
bx >"
bx H"
bx Y"
bx Q
bx 8"
bx L"
bx ["
bx S
bx 9"
bx J"
bx Z"
b0xxxxxxxxxxxx X
b0xxxxxxxxxxxx 1"
b0xxxxxxxxxxxx F"
b0xxxxxxxxxxxx U"
b0 D
b0 t
b0 `"
b0 d"
b110000010011 H
b110000010011 _"
b110000010011 c"
b110000010011 e"
b1000 4
b1000 p
b1000 &#
b100 2
b100 q
b100 a"
b100 k"
b100 %#
b1 $
1!
#75
0!
#100
b1000 r
b0 [
b0 e
b0 $"
b0 j
b100 I
b100 Q"
b100 f"
b100 i"
b100 h"
b11010 C
b11010 G"
b100 @
b100 ="
b100 K"
b100 ,#
b0 a
b0 f
b0 0"
b0 3"
b0 b
b0 ("
b0 2"
b0 |"
b0 ##
b0 c
b0 g
b0 v"
b0 {"
b10000000000111000010011 =
b10000000000111000010011 b"
b10000000000111000010011 j"
b1100 3
b1100 $#
b1100 (#
b1100 )#
b1100 _
b1100 s
b1100 '#
b100 D
b100 t
b100 `"
b100 d"
b10000000000110100010011 H
b10000000000110100010011 _"
b10000000000110100010011 c"
b10000000000110100010011 e"
b0 Y
b0 l
b0 E"
b0 T"
b11000 T
b11000 '"
b11000 >"
b11000 H"
b11000 Y"
b0 Q
b0 8"
b0 L"
b0 ["
b0 S
b0 9"
b0 J"
b0 Z"
1Z
1S"
1O
1^"
b0 X
b0 1"
b0 F"
b0 U"
b0 P
b0 N"
b0 !#
b0 ]"
b0 R
b0 M"
b0 y"
b0 \"
bx 8
bx &"
bx 6"
bx n"
bx /"
b1100 4
b1100 p
b1100 &#
b1000 2
b1000 q
b1000 a"
b1000 k"
b1000 %#
b10 $
1!
#125
0!
#150
b100 [
b100 e
b100 $"
b100 j
b100 a
b100 f
b100 0"
b100 3"
b11100 C
b11100 G"
b11111111111100000000011110010011 =
b11111111111100000000011110010011 b"
b11111111111100000000011110010011 j"
b10000 3
b10000 $#
b10000 (#
b10000 )#
bx .
bx 7"
bx q"
bx t"
bx *#
b11000 8
b11000 &"
b11000 6"
b11000 n"
b11000 /"
b0 ^
b0 ""
b0 %"
b0 ."
b0 <
b0 #"
b0 )"
b0 *"
b0 l"
b0 w"
b0 }"
16
1-"
b11010 T
b11010 '"
b11010 >"
b11010 H"
b11010 Y"
b100 Q
b100 8"
b100 L"
b100 ["
b100 X
b100 1"
b100 F"
b100 U"
b10000 _
b10000 s
b10000 '#
b1000 D
b1000 t
b1000 `"
b1000 d"
b10000000000111000010011 H
b10000000000111000010011 _"
b10000000000111000010011 c"
b10000000000111000010011 e"
b10000 4
b10000 p
b10000 &#
b1100 2
b1100 q
b1100 a"
b1100 k"
b1100 %#
b11 $
1!
#175
0!
#200
0)
b11111111111111111111111111111110 r
b111110 ?
b111110 u
b111110 O"
b111110 -#
b11111111111111111111111111111111 I
b11111111111111111111111111111111 Q"
b11111111111111111111111111111111 f"
b11111111111111111111111111111111 i"
b111111111111 h"
b1111111000 D"
b1111 C
b1111 G"
b11111 @
b11111 ="
b11111 K"
b11111 ,#
b0 ,
b0 z"
b0 "#
b0 /#
b0 2#
b0 3#
b11110011010000110010110011 =
b11110011010000110010110011 b"
b11110011010000110010110011 j"
b10100 3
b10100 $#
b10100 (#
b10100 )#
b1010 _
b1010 s
b1010 '#
b1100 D
b1100 t
b1100 `"
b1100 d"
b11111111111100000000011110010011 H
b11111111111100000000011110010011 _"
b11111111111100000000011110010011 c"
b11111111111100000000011110010011 e"
b11100 T
b11100 '"
b11100 >"
b11100 H"
b11100 Y"
b11010 8
b11010 &"
b11010 6"
b11010 n"
b11010 /"
b100 <
b100 #"
b100 )"
b100 *"
b100 l"
b100 w"
b100 }"
b11000 .
b11000 7"
b11000 q"
b11000 t"
b11000 *#
b0 +
b0 m"
b0 0#
b0 r"
1-
b10100 4
b10100 p
b10100 &#
b10000 2
b10000 q
b10000 a"
b10000 k"
b10000 %#
b100 $
1!
#225
0!
#250
b11111111111111111111111111111111 [
b11111111111111111111111111111111 e
b11111111111111111111111111111111 $"
b11111111111111111111111111111111 j
b100000111000 r
0J
0z
b10 K
b10 w
b10 B"
b10 y
b111000 ?
b111000 u
b111000 O"
b111000 -#
b100 A
b100 v
b100 P"
b100 .#
b100 ,
b100 z"
b100 "#
b100 /#
b100 2#
b100 3#
b11111111111111111111111111111111 a
b11111111111111111111111111111111 f
b11111111111111111111111111111111 0"
b11111111111111111111111111111111 3"
b111110 b
b111110 ("
b111110 2"
b111110 |"
b111110 ##
b10000011100 I
b10000011100 Q"
b10000011100 f"
b10000011100 i"
b10000011100 h"
b110011 g"
b1000 D"
b110011 x
b11001 C
b11001 G"
b11100 @
b11100 ="
b11100 K"
b11100 ,#
b11010 B
b11010 <"
b11010 I"
b11010 +#
b11111111111111010000110100010011 =
b11111111111111010000110100010011 b"
b11111111111111010000110100010011 j"
b11000 3
b11000 $#
b11000 (#
b11000 )#
b11010 .
b11010 7"
b11010 q"
b11010 t"
b11010 *#
b100 +
b100 m"
b100 0#
b100 r"
b11100 8
b11100 &"
b11100 6"
b11100 n"
b11100 /"
b1111111000 Y
b1111111000 l
b1111111000 E"
b1111111000 T"
b1111 T
b1111 '"
b1111 >"
b1111 H"
b1111 Y"
b11111 Q
b11111 8"
b11111 L"
b11111 ["
b11111111111111111111111111111111 X
b11111111111111111111111111111111 1"
b11111111111111111111111111111111 F"
b11111111111111111111111111111111 U"
b111110 P
b111110 N"
b111110 !#
b111110 ]"
b100001001000 _
b100001001000 s
b100001001000 '#
b10000 D
b10000 t
b10000 `"
b10000 d"
b11110011010000110010110011 H
b11110011010000110010110011 _"
b11110011010000110010110011 c"
b11110011010000110010110011 e"
b11000 4
b11000 p
b11000 &#
b10100 2
b10100 q
b10100 a"
b10100 k"
b10100 %#
b101 $
1!
#275
0!
#300
0)
b11111111111111111111111111111110 r
1J
1z
b0 K
b0 w
b0 B"
b0 y
b10000 [
b10000 e
b10000 $"
b10000 j
b111110 ?
b111110 u
b111110 O"
b111110 -#
b11111111111111111111111111111111 I
b11111111111111111111111111111111 Q"
b11111111111111111111111111111111 f"
b11111111111111111111111111111111 i"
b111111111111 h"
b10011 g"
b1111111000 D"
b10011 x
b11010 C
b11010 G"
b11111 @
b11111 ="
b11111 K"
b11111 ,#
b11 ]
b11 h
b11 k
b11 n
b100 a
b100 f
b100 0"
b100 3"
b100 c
b100 g
b100 v"
b100 {"
b100 b
b100 ("
b100 2"
b100 |"
b100 ##
b1 L
b1 5"
b1 ~"
b1 ;"
b11001010110110000011 =
b11001010110110000011 b"
b11001010110110000011 j"
b11100 3
b11100 $#
b11100 (#
b11100 )#
b10010 _
b10010 s
b10010 '#
b10100 D
b10100 t
b10100 `"
b10100 d"
b11111111111111010000110100010011 H
b11111111111111010000110100010011 _"
b11111111111111010000110100010011 c"
b11111111111111010000110100010011 e"
b1000 Y
b1000 l
b1000 E"
b1000 T"
b11001 T
b11001 '"
b11001 >"
b11001 H"
b11001 Y"
b11100 Q
b11100 8"
b11100 L"
b11100 ["
b11010 S
b11010 9"
b11010 J"
b11010 Z"
b10 \
b10 m
b10 C"
b10 R"
0Z
0S"
b10000011100 X
b10000011100 1"
b10000011100 F"
b10000011100 U"
b111000 P
b111000 N"
b111000 !#
b111000 ]"
b100 R
b100 M"
b100 y"
b100 \"
b1111 8
b1111 &"
b1111 6"
b1111 n"
b1111 /"
b111110 ^
b111110 ""
b111110 %"
b111110 ."
b11111111111111111111111111111111 <
b11111111111111111111111111111111 #"
b11111111111111111111111111111111 )"
b11111111111111111111111111111111 *"
b11111111111111111111111111111111 l"
b11111111111111111111111111111111 w"
b11111111111111111111111111111111 }"
b11100 .
b11100 7"
b11100 q"
b11100 t"
b11100 *#
b11100 4
b11100 p
b11100 &#
b11000 2
b11000 q
b11000 a"
b11000 k"
b11000 %#
b110 $
1!
#325
0!
#350
b111110 b
b111110 ("
b111110 2"
b111110 |"
b111110 ##
b11 [
b11 e
b11 $"
b11 j
b0 r
1G
1{
1E
1}
b0 ?
b0 u
b0 O"
b0 -#
b11111111111111111111111111100111 A
b11111111111111111111111111100111 v
b11111111111111111111111111100111 P"
b11111111111111111111111111100111 .#
b11111111111111111111111111111111 ,
b11111111111111111111111111111111 z"
b11111111111111111111111111111111 "#
b11111111111111111111111111111111 /#
b11111111111111111111111111111111 2#
b11111111111111111111111111111111 3#
b0 L
b0 5"
b0 ~"
b0 ;"
b10 ]
b10 h
b10 k
b10 n
b11111111111111111111111111111111 a
b11111111111111111111111111111111 f
b11111111111111111111111111111111 0"
b11111111111111111111111111111111 3"
b0 I
b0 Q"
b0 f"
b0 i"
b0 h"
b100000011 g"
b10 D"
b11 x
b11011 C
b11011 G"
b0 @
b0 ="
b0 K"
b0 ,#
b11001 B
b11001 <"
b11001 I"
b11001 +#
b1101111000000110000110011 =
b1101111000000110000110011 b"
b1101111000000110000110011 j"
b100000 3
b100000 $#
b100000 (#
b100000 )#
b1111 .
b1111 7"
b1111 q"
b1111 t"
b1111 *#
b11111111111111111111111111111111 +
b11111111111111111111111111111111 m"
b11111111111111111111111111111111 0#
b11111111111111111111111111111111 r"
b11001 8
b11001 &"
b11001 6"
b11001 n"
b11001 /"
b100 ^
b100 ""
b100 %"
b100 ."
b10000 <
b10000 #"
b10000 )"
b10000 *"
b10000 l"
b10000 w"
b10000 }"
b1111111000 Y
b1111111000 l
b1111111000 E"
b1111111000 T"
b11010 T
b11010 '"
b11010 >"
b11010 H"
b11010 Y"
b11111 Q
b11111 8"
b11111 L"
b11111 ["
b0 \
b0 m
b0 C"
b0 R"
1Z
1S"
b11111111111111111111111111111111 X
b11111111111111111111111111111111 1"
b11111111111111111111111111111111 F"
b11111111111111111111111111111111 U"
b111110 P
b111110 N"
b111110 !#
b111110 ]"
b11000 _
b11000 s
b11000 '#
b11000 D
b11000 t
b11000 `"
b11000 d"
b11001010110110000011 H
b11001010110110000011 _"
b11001010110110000011 c"
b11001010110110000011 e"
b100000 4
b100000 p
b100000 &#
b11100 2
b11100 q
b11100 a"
b11100 k"
b11100 %#
b111 $
1!
#375
0!
#400
b11000 r
0G
0{
0E
0}
0>
0~
0J
0z
b11111111111111111111111111100101 ?
b11111111111111111111111111100101 u
b11111111111111111111111111100101 O"
b11111111111111111111111111100101 -#
01
0@"
10
1A"
15
1?"
b10000 [
b10000 e
b10000 $"
b10000 j
b0 A
b0 v
b0 P"
b0 .#
b1100 I
b1100 Q"
b1100 f"
b1100 i"
b1100 h"
b110011 g"
b0 D"
b110011 x
b11000 C
b11000 G"
b11011 @
b11011 ="
b11011 K"
b11011 ,#
b11000 B
b11000 <"
b11000 I"
b11000 +#
b0 a
b0 f
b0 0"
b0 3"
b10000 c
b10000 g
b10000 v"
b10000 {"
b0 b
b0 ("
b0 2"
b0 |"
b0 ##
b1 M
b1 4"
b1 x"
b1 :"
b10000 ,
b10000 z"
b10000 "#
b10000 /#
b10000 2#
b10000 3#
b111111010000010001100011 =
b111111010000010001100011 b"
b111111010000010001100011 j"
b100100 3
b100100 $#
b100100 (#
b100100 )#
b110100 _
b110100 s
b110100 '#
b11100 D
b11100 t
b11100 `"
b11100 d"
b1101111000000110000110011 H
b1101111000000110000110011 _"
b1101111000000110000110011 c"
b1101111000000110000110011 e"
b10 Y
b10 l
b10 E"
b10 T"
b11011 T
b11011 '"
b11011 >"
b11011 H"
b11011 Y"
b0 Q
b0 8"
b0 L"
b0 ["
b11001 S
b11001 9"
b11001 J"
b11001 Z"
1W
1V"
1U
1X"
b0 X
b0 1"
b0 F"
b0 U"
b0 P
b0 N"
b0 !#
b0 ]"
b11111111111111111111111111100111 R
b11111111111111111111111111100111 M"
b11111111111111111111111111100111 y"
b11111111111111111111111111100111 \"
b11010 8
b11010 &"
b11010 6"
b11010 n"
b11010 /"
b111110 ^
b111110 ""
b111110 %"
b111110 ."
b11 <
b11 #"
b11 )"
b11 *"
b11 l"
b11 w"
b11 }"
b11001 .
b11001 7"
b11001 q"
b11001 t"
b11001 *#
b10000 +
b10000 m"
b10000 0#
b10000 r"
b100100 4
b100100 p
b100100 &#
b100000 2
b100000 q
b100000 a"
b100000 k"
b100000 %#
b1000 $
1!
#425
0!
#450
b0 c
b0 g
b0 v"
b0 {"
1>
1~
b10 K
b10 w
b10 B"
b10 y
b10000 [
b10000 e
b10000 $"
b10000 j
b11 ,
b11 z"
b11 "#
b11 /#
b11 2#
b11 3#
b11101 7
b11101 !"
b11101 o"
b10 L
b10 5"
b10 ~"
b10 ;"
b0 M
b0 4"
b0 x"
b0 :"
11
1@"
00
0A"
05
0?"
b10000 a
b10000 f
b10000 0"
b10000 3"
b10000 b
b10000 ("
b10000 2"
b10000 |"
b10000 ##
b11010 .
b11010 7"
b11010 q"
b11010 t"
b11010 *#
b11 +
b11 m"
b11 0#
b11 r"
b11011 8
b11011 &"
b11011 6"
b11011 n"
b11011 /"
b0 ^
b0 ""
b0 %"
b0 ."
b10000 <
b10000 #"
b10000 )"
b10000 *"
b10000 l"
b10000 w"
b10000 }"
1;
19
1,"
b0 Y
b0 l
b0 E"
b0 T"
b11000 T
b11000 '"
b11000 >"
b11000 H"
b11000 Y"
b11011 Q
b11011 8"
b11011 L"
b11011 ["
b11000 S
b11000 9"
b11000 J"
b11000 Z"
0Z
0S"
0W
0V"
0U
0X"
0O
0^"
b1100 X
b1100 1"
b1100 F"
b1100 U"
b11111111111111111111111111100101 P
b11111111111111111111111111100101 N"
b11111111111111111111111111100101 !#
b11111111111111111111111111100101 ]"
b0 R
b0 M"
b0 y"
b0 \"
b1001 $
b1 (
1!
#475
0!
