CA2022_lab2/b09901089_lab2/codes/CPU.vcd
$date
	Tue Jan  3 13:20:06 2023
$end
$version
	Icarus Verilog
$end
$timescale
	1s
$end
$scope module TestBench $end
$var reg 1 ! Clk $end
$var reg 1 " Reset $end
$var integer 32 # counter [31:0] $end
$var integer 32 $ i [31:0] $end
$var integer 32 % outfile [31:0] $end
$scope module CPU $end
$var wire 1 & Flush $end
$var wire 1 ! clk_i $end
$var wire 1 " rst_i $end
$var wire 1 ' start_i $end
$var wire 1 ( result $end
$var wire 1 ) prediction $end
$var wire 1 * Zero $end
$var wire 32 + WBWriteData1 [31:0] $end
$var wire 32 , WBWriteData0 [31:0] $end
$var wire 32 - WBWriteData [31:0] $end
$var wire 1 . WBRegWrite $end
$var wire 5 / WBRDaddr [4:0] $end
$var wire 1 0 WBMemtoReg $end
$var wire 1 1 Stall $end
$var wire 1 2 PredFlush $end
$var wire 1 3 PCWrite $end
$var wire 32 4 PCValueOld [31:0] $end
$var wire 32 5 PCValueNewNew [31:0] $end
$var wire 32 6 PCValueNew [31:0] $end
$var wire 32 7 PCRight [31:0] $end
$var wire 1 8 PCMUXCtrl $end
$var wire 32 9 PCAM [31:0] $end
$var wire 1 : NoOp $end
$var wire 1 ; MEMRegWrite $end
$var wire 32 < MEMReadData [31:0] $end
$var wire 5 = MEMRDaddr [4:0] $end
$var wire 1 > MEMMemtoReg $end
$var wire 1 ? MEMMemWrite $end
$var wire 1 @ MEMMemRead $end
$var wire 32 A MEMALUResult [31:0] $end
$var wire 32 B IFInst [31:0] $end
$var wire 1 C IDRegWrite $end
$var wire 32 D IDRS2data [31:0] $end
$var wire 5 E IDRS2addr [4:0] $end
$var wire 32 F IDRS1data [31:0] $end
$var wire 5 G IDRS1addr [4:0] $end
$var wire 5 H IDRDaddr [4:0] $end
$var wire 32 I IDPC [31:0] $end
$var wire 1 J IDMemtoReg $end
$var wire 1 K IDMemWrite $end
$var wire 1 L IDMemRead $end
$var wire 32 M IDInst [31:0] $end
$var wire 32 N IDImm [31:0] $end
$var wire 1 O IDALUSrc $end
$var wire 2 P IDALUOp [1:0] $end
$var wire 2 Q ForwardB [1:0] $end
$var wire 2 R ForwardA [1:0] $end
$var wire 1 S EXRegWrite $end
$var wire 32 T EXRS2data [31:0] $end
$var wire 5 U EXRS2addr [4:0] $end
$var wire 32 V EXRS1data [31:0] $end
$var wire 5 W EXRS1addr [4:0] $end
$var wire 5 X EXRDaddr [4:0] $end
$var wire 32 Y EXPC [31:0] $end
$var wire 1 Z EXMemtoReg $end
$var wire 1 [ EXMemWrite $end
$var wire 1 \ EXMemRead $end
$var wire 32 ] EXImm [31:0] $end
$var wire 10 ^ EXFucnt [9:0] $end
$var wire 32 _ EXBranchPC [31:0] $end
$var wire 1 ` EXBranch $end
$var wire 1 a EXALUSrc $end
$var wire 32 b EXALUResult [31:0] $end
$var wire 2 c EXALUOp [1:0] $end
$var wire 3 d EXALUCtrl [2:0] $end
$var wire 32 e DMWriteData [31:0] $end
$var wire 32 f BranchPC [31:0] $end
$var wire 1 g Branch $end
$var wire 32 h ALUParameter3 [31:0] $end
$var wire 32 i ALUParameter2 [31:0] $end
$var wire 32 j ALUParameter1 [31:0] $end
$scope module ALU $end
$var wire 1 * Zero_o $end
$var wire 32 k data_o [31:0] $end
$var wire 32 l data2_i [31:0] $end
$var wire 32 m data1_i [31:0] $end
$var wire 3 n ALUCtrl_i [2:0] $end
$var reg 1 * Zero $end
$var reg 32 o data [31:0] $end
$upscope $end
$scope module ALU_Control $end
$var wire 3 p ALUCtrl_o [2:0] $end
$var wire 10 q Funct_i [9:0] $end
$var wire 2 r ALUOp_i [1:0] $end
$var reg 3 s ALUCtrl [2:0] $end
$upscope $end
$scope module AND1 $end
$var wire 1 * data1_i $end
$var wire 1 ( data_o $end
$var wire 1 ` data0_i $end
$upscope $end
$scope module AND2 $end
$var wire 1 8 data_o $end
$var wire 1 ) data1_i $end
$var wire 1 g data0_i $end
$upscope $end
$scope module Add_PC $end
$var wire 32 t data1_in [31:0] $end
$var wire 32 u data_o [31:0] $end
$var wire 32 v data2_in [31:0] $end
$upscope $end
$scope module Adder $end
$var wire 32 w data1_in [31:0] $end
$var wire 32 x data_o [31:0] $end
$var wire 32 y data2_in [31:0] $end
$upscope $end
$scope module Control $end
$var wire 2 z ALUOp_o [1:0] $end
$var wire 1 O ALUSrc_o $end
$var wire 1 g Branch_o $end
$var wire 1 L MemRead_o $end
$var wire 1 K MemWrite_o $end
$var wire 1 J MemtoReg_o $end
$var wire 7 { Op_i [6:0] $end
$var wire 1 C RegWrite_o $end
$var wire 1 : NoOp_i $end
$var reg 2 | ALUOp [1:0] $end
$var reg 1 } ALUSrc $end
$var reg 1 g Branch $end
$var reg 1 ~ MemRead $end
$var reg 1 !" MemWrite $end
$var reg 1 "" MemtoReg $end
$var reg 1 #" RegWrite $end
$upscope $end
$scope module Data_Memory $end
$var wire 1 ! clk_i $end
$var wire 32 $" data_o [31:0] $end
$var wire 32 %" data_i [31:0] $end
$var wire 32 &" addr_i [31:0] $end
$var wire 1 ? MemWrite_i $end
$var wire 1 @ MemRead_i $end
$upscope $end
$scope module EXMEM $end
$var wire 32 '" ALUResult_i [31:0] $end
$var wire 1 ? MemWrite_o $end
$var wire 1 > MemtoReg_o $end
$var wire 1 ; RegWrite_o $end
$var wire 32 (" WriteData_o [31:0] $end
$var wire 5 )" WriteReg_o [4:0] $end
$var wire 1 ! clk_i $end
$var wire 5 *" WriteReg_i [4:0] $end
$var wire 32 +" WriteData_i [31:0] $end
$var wire 1 S RegWrite_i $end
$var wire 1 Z MemtoReg_i $end
$var wire 1 [ MemWrite_i $end
$var wire 1 @ MemRead_o $end
$var wire 1 \ MemRead_i $end
$var wire 32 ," ALUResult_o [31:0] $end
$var reg 32 -" ALUResult_r [31:0] $end
$var reg 1 @ MemRead_r $end
$var reg 1 ." MemWrite_r $end
$var reg 1 /" MemtoReg_r $end
$var reg 1 0" RegWrite_r $end
$var reg 32 1" WriteData_r [31:0] $end
$var reg 5 2" WriteReg_r [4:0] $end
$upscope $end
$scope module EXMUX $end
$var wire 32 3" data_o [31:0] $end
$var wire 32 4" data1_i [31:0] $end
$var wire 32 5" data0_i [31:0] $end
$var wire 1 a ctrl_i $end
$var reg 32 6" data_r [31:0] $end
$upscope $end
$scope module ForwardingUnit $end
$var wire 2 7" ForwardA_o [1:0] $end
$var wire 2 8" ForwardB_o [1:0] $end
$var wire 5 9" MEMRd_i [4:0] $end
$var wire 1 ; MEMRegWrite_i $end
$var wire 1 . WBRegWrite_i $end
$var wire 5 :" WBRd_i [4:0] $end
$var wire 5 ;" PRS2_i [4:0] $end
$var wire 5 <" PRS1_i [4:0] $end
$var reg 2 =" ForwardA_r [1:0] $end
$var reg 2 >" ForwardB_r [1:0] $end
$upscope $end
$scope module Hazard_Detection $end
$var wire 1 : NoOp_o $end
$var wire 1 3 PCWrite_o $end
$var wire 5 ?" RS1addr_i [4:0] $end
$var wire 5 @" RS2addr_i [4:0] $end
$var wire 1 1 Stall_o $end
$var wire 5 A" PRD_i [4:0] $end
$var wire 1 \ MemRead_i $end
$var reg 1 B" NoOp_r $end
$var reg 1 C" PCWrite_r $end
$var reg 1 D" Stall_r $end
$upscope $end
$scope module ID_EX $end
$var wire 2 E" ALUOp_i [1:0] $end
$var wire 2 F" ALUOp_o [1:0] $end
$var wire 1 O ALUSrc_i $end
$var wire 1 a ALUSrc_o $end
$var wire 32 G" BranchPC_i [31:0] $end
$var wire 1 g Branch_i $end
$var wire 10 H" Funct_i [9:0] $end
$var wire 10 I" Funct_o [9:0] $end
$var wire 32 J" Imm_o [31:0] $end
$var wire 1 L MemRead_i $end
$var wire 1 \ MemRead_o $end
$var wire 1 K MemWrite_i $end
$var wire 1 [ MemWrite_o $end
$var wire 1 J MemtoReg_i $end
$var wire 1 Z MemtoReg_o $end
$var wire 5 K" PRD_i [4:0] $end
$var wire 5 L" PRD_o [4:0] $end
$var wire 5 M" PRS1_i [4:0] $end
$var wire 5 N" PRS1_o [4:0] $end
$var wire 5 O" PRS2_i [4:0] $end
$var wire 5 P" PRS2_o [4:0] $end
$var wire 32 Q" RS1data_o [31:0] $end
$var wire 32 R" RS2data_o [31:0] $end
$var wire 1 C RegWrite_i $end
$var wire 1 S RegWrite_o $end
$var wire 1 ! clk_i $end
$var wire 32 S" pc_o [31:0] $end
$var wire 32 T" pc_i [31:0] $end
$var wire 1 2 flush_i $end
$var wire 32 U" RS2data_i [31:0] $end
$var wire 32 V" RS1data_i [31:0] $end
$var wire 32 W" Imm_i [31:0] $end
$var wire 1 ` Branch_o $end
$var reg 2 X" ALUOp_r [1:0] $end
$var reg 1 Y" ALUSrc_r $end
$var reg 32 Z" BranchPC_o [31:0] $end
$var reg 1 ` Branch_r $end
$var reg 10 [" Funct_r [9:0] $end
$var reg 32 \" Imm_r [31:0] $end
$var reg 1 ]" MemRead_r $end
$var reg 1 ^" MemWrite_r $end
$var reg 1 _" MemtoReg_r $end
$var reg 5 `" PRD_r [4:0] $end
$var reg 5 a" PRS1_r [4:0] $end
$var reg 5 b" PRS2_r [4:0] $end
$var reg 32 c" RS1data_r [31:0] $end
$var reg 32 d" RS2data_r [31:0] $end
$var reg 1 e" RegWrite_r $end
$var reg 32 f" pc_r [31:0] $end
$upscope $end
$scope module IF_ID $end
$var wire 1 ! clk_i $end
$var wire 1 & flush_i $end
$var wire 1 " rst_i $end
$var wire 1 1 stall_i $end
$var wire 32 g" inst_i [31:0] $end
$var wire 32 h" PC_i [31:0] $end
$var reg 32 i" PC_o [31:0] $end
$var reg 32 j" inst_o [31:0] $end
$upscope $end
$scope module ImmGen $end
$var wire 32 k" data_i [31:0] $end
$var wire 32 l" data_o [31:0] $end
$var wire 10 m" funct [9:0] $end
$var reg 12 n" Imm12 [11:0] $end
$var reg 32 o" data [31:0] $end
$upscope $end
$scope module Instruction_Memory $end
$var wire 32 p" instr_o [31:0] $end
$var wire 32 q" addr_i [31:0] $end
$upscope $end
$scope module MEMWB $end
$var wire 32 r" ALUResult_i [31:0] $end
$var wire 32 s" ALUResult_o [31:0] $end
$var wire 1 > MemtoReg_i $end
$var wire 1 0 MemtoReg_o $end
$var wire 5 t" PRD_i [4:0] $end
$var wire 32 u" ReadData_i [31:0] $end
$var wire 32 v" ReadData_o [31:0] $end
$var wire 1 ; RegWrite_i $end
$var wire 1 ! clk_i $end
$var wire 1 . RegWrite_o $end
$var wire 5 w" PRD_o [4:0] $end
$var reg 32 x" ALUResult_r [31:0] $end
$var reg 1 y" MemtoReg_r $end
$var reg 5 z" PRD_r [4:0] $end
$var reg 32 {" ReadData_r [31:0] $end
$var reg 1 . RegWrite_r $end
$upscope $end
$scope module MUX2A $end
$var wire 32 |" ALUParameter_o [31:0] $end
$var wire 32 }" ALUResult_i [31:0] $end
$var wire 2 ~" Forward_i [1:0] $end
$var wire 32 !# RSdata_i [31:0] $end
$var wire 32 "# WriteData_i [31:0] $end
$var reg 32 ## ALUParameter_r [31:0] $end
$upscope $end
$scope module MUX2B $end
$var wire 32 $# ALUParameter_o [31:0] $end
$var wire 32 %# ALUResult_i [31:0] $end
$var wire 2 &# Forward_i [1:0] $end
$var wire 32 '# RSdata_i [31:0] $end
$var wire 32 (# WriteData_i [31:0] $end
$var reg 32 )# ALUParameter_r [31:0] $end
$upscope $end
$scope module PC $end
$var wire 1 3 PCWrite_i $end
$var wire 1 ! clk_i $end
$var wire 1 " rst_i $end
$var wire 32 *# pc_i [31:0] $end
$var reg 32 +# pc_o [31:0] $end
$upscope $end
$scope module PCMUX $end
$var wire 1 8 ctrl_i $end
$var wire 32 ,# data0_i [31:0] $end
$var wire 32 -# data1_i [31:0] $end
$var wire 32 .# data_o [31:0] $end
$var reg 32 /# data_r [31:0] $end
$upscope $end
$scope module PREDMUX $end
$var wire 32 0# data0_i [31:0] $end
$var wire 32 1# data_o [31:0] $end
$var wire 32 2# data1_i [31:0] $end
$var wire 1 2 ctrl_i $end
$var reg 32 3# data_r [31:0] $end
$upscope $end
$scope module Registers $end
$var wire 5 4# RDaddr_i [4:0] $end
$var wire 5 5# RS1addr_i [4:0] $end
$var wire 5 6# RS2addr_i [4:0] $end
$var wire 1 . RegWrite_i $end
$var wire 1 ! clk_i $end
$var wire 32 7# RS2data_o [31:0] $end
$var wire 32 8# RS1data_o [31:0] $end
$var wire 32 9# RDdata_i [31:0] $end
$upscope $end
$scope module WBMUX $end
$var wire 1 0 ctrl_i $end
$var wire 32 :# data0_i [31:0] $end
$var wire 32 ;# data1_i [31:0] $end
$var wire 32 <# data_o [31:0] $end
$var reg 32 =# data_r [31:0] $end
$upscope $end
$scope module branch_predictor $end
$var wire 32 ># branchtarget_i [31:0] $end
$var wire 1 ! clk_i $end
$var wire 32 ?# pc_i [31:0] $end
$var wire 1 ( result_i $end
$var wire 1 " rst_i $end
$var wire 1 ` update_i $end
$var wire 1 ) predict_o $end
$var wire 1 2 flush_o $end
$var reg 1 2 flush_r $end
$var reg 32 @# pc_o [31:0] $end
$var reg 1 ) predict_r $end
$var reg 2 A# state [1:0] $end
$var reg 2 B# statetemp [1:0] $end
$upscope $end
$upscope $end
$upscope $end
$enddefinitions $end
#0
$dumpvars
b0 B#
b0 A#
b0 @#
b0 ?#
bx >#
b0 =#
b0 <#
b0 ;#
b0 :#
b0 9#
bx 8#
bx 7#
bx 6#
bx 5#
b0 4#
bx 3#
b0 2#
bx 1#
bx 0#
bx /#
bx .#
bx -#
bx ,#
bx +#
bx *#
bx )#
b0 (#
bx '#
b0 &#
bx %#
bx $#
bx ##
b0 "#
bx !#
b0 ~"
bx }"
bx |"
b0 {"
b0 z"
0y"
b0 x"
b0 w"
b0 v"
b0 u"
b0 t"
b0 s"
bx r"
bx q"
bx p"
b0xxxxxxxxxxxx o"
bx n"
bx m"
b0xxxxxxxxxxxx l"
bx k"
bx j"
bx i"
bx h"
bx g"
b0 f"
0e"
bx d"
bx c"
b0 b"
b0 a"
b0 `"
0_"
0^"
0]"
b0 \"
b0 ["
bx Z"
0Y"
b0 X"
b0xxxxxxxxxxxx W"
bx V"
bx U"
bx T"
b0 S"
bx R"
bx Q"
b0 P"
bx O"
b0 N"
bx M"
b0 L"
bx K"
b0 J"
b0 I"
bx H"
bx G"
b0 F"
b0 E"
0D"
1C"
0B"
b0 A"
bx @"
bx ?"
b0 >"
b0 ="
b0 <"
b0 ;"
b0 :"
b0 9"
b0 8"
b0 7"
bx 6"
bx 5"
b0 4"
bx 3"
b0 2"
bx 1"
00"
0/"
0."
bx -"
bx ,"
bx +"
b0 *"
b0 )"
bx ("
bx '"
bx &"
bx %"
b0 $"
0#"
0""
0!"
0~
0}
b0 |
bx {
b0 z
bx y
bx x
b0xxxxxxxxxxxx0 w
bx v
bx u
b100 t
b10 s
b0 r
b0 q
b10 p
bx o
b10 n
bx m
bx l
bx k
bx j
bx i
bx h
0g
bx f
bx e
b10 d
b0 c
bx b
0a
0`
bx _
b0 ^
b0 ]
0\
0[
0Z
b0 Y
b0 X
b0 W
bx V
b0 U
bx T
0S
b0 R
b0 Q
b0 P
0O
b0xxxxxxxxxxxx N
bx M
0L
0K
0J
bx I
bx H
bx G
bx F
bx E
bx D
0C
bx B
bx A
0@
0?
0>
b0 =
b0 <
0;
0:
bx 9
08
b0 7
bx 6
bx 5
bx 4
13
02
01
00
b0 /
0.
b0 -
b0 ,
b0 +
0*
1)
0(
z'
0&
b11 %
b100000 $
b0 #
0"
1!
$end
#12
b100 5
b100 *#
b100 1#
b100 3#
b110000010011 B
b110000010011 g"
b110000010011 p"
b100 6
b100 .#
b100 0#
b100 /#
b100 9
b100 u
b100 ,#
b0 4
b0 v
b0 h"
b0 q"
b0 +#
1"
#24
0"
#25
0!
#50
b0 f
b0 x
b0 G"
b0 -#
b0 w
1C
1#"
1O
1}
b0 D
b0 U"
b0 7#
b0 F
b0 V"
b0 8#
b1000 5
b1000 *#
b1000 1#
b1000 3#
bx -
bx "#
bx (#
bx 9#
bx <#
bx =#
b0 N
b0 W"
b0 l"
b0 o"
b0 n"
b10011 m"
b0 H"
b10011 {
b11000 H
b11000 K"
b0 E
b0 @"
b0 O"
b0 6#
b0 G
b0 ?"
b0 M"
b0 5#
b10000000000110100010011 B
b10000000000110100010011 g"
b10000000000110100010011 p"
b1000 6
b1000 .#
b1000 0#
b1000 /#
bx ,
bx s"
bx :#
bx x"
bx Y
bx S"
bx ?#
bx f"
bx ^
bx q
bx I"
bx ["
bx X
bx *"
bx A"
bx L"
bx `"
bx U
bx ;"
bx P"
bx b"
bx W
bx <"
bx N"
bx a"
b0xxxxxxxxxxxx ]
b0xxxxxxxxxxxx 4"
b0xxxxxxxxxxxx J"
b0xxxxxxxxxxxx \"
b0 I
b0 y
b0 T"
b0 i"
b110000010011 M
b110000010011 j"
b110000010011 k"
b1000 9
b1000 u
b1000 ,#
b100 4
b100 v
b100 h"
b100 q"
b100 +#
b1 #
1!
#75
0!
#100
b1000 w
b0 b
b0 k
b0 '"
b0 o
b1100 5
b1100 *#
b1100 1#
b1100 3#
b100 N
b100 W"
b100 l"
b100 o"
b100 n"
b11010 H
b11010 K"
b100 E
b100 @"
b100 O"
b100 6#
b0 h
b0 l
b0 3"
b0 6"
b0 i
b0 +"
b0 5"
b0 $#
b0 )#
b0 j
b0 m
b0 |"
b0 ##
b10000000000111000010011 B
b10000000000111000010011 g"
b10000000000111000010011 p"
b1100 6
b1100 .#
b1100 0#
b1100 /#
b1100 f
b1100 x
b1100 G"
b1100 -#
b100 I
b100 y
b100 T"
b100 i"
b10000000000110100010011 M
b10000000000110100010011 j"
b10000000000110100010011 k"
b0 _
b0 Z"
b0 >#
b0 Y
b0 S"
b0 ?#
b0 f"
b0 ^
b0 q
b0 I"
b0 ["
b11000 X
b11000 *"
b11000 A"
b11000 L"
b11000 `"
b0 U
b0 ;"
b0 P"
b0 b"
b0 W
b0 <"
b0 N"
b0 a"
1a
1Y"
1S
1e"
b0 ]
b0 4"
b0 J"
b0 \"
b0 T
b0 R"
b0 '#
b0 d"
b0 V
b0 Q"
b0 !#
b0 c"
bx =
bx )"
bx 9"
bx t"
bx 2"
b1100 9
b1100 u
b1100 ,#
b1000 4
b1000 v
b1000 h"
b1000 q"
b1000 +#
b10 #
1!
#125
0!
#150
b100 b
b100 k
b100 '"
b100 o
b10000 5
b10000 *#
b10000 1#
b10000 3#
b100 h
b100 l
b100 3"
b100 6"
b11100 H
b11100 K"
b11111111111100000000011110010011 B
b11111111111100000000011110010011 g"
b11111111111100000000011110010011 p"
b10000 6
b10000 .#
b10000 0#
b10000 /#
bx /
bx :"
bx w"
bx z"
bx 4#
b11000 =
b11000 )"
b11000 9"
b11000 t"
b11000 2"
b0 e
b0 %"
b0 ("
b0 1"
b0 A
b0 &"
b0 ,"
b0 -"
b0 r"
b0 }"
b0 %#
1;
10"
b1100 _
b1100 Z"
b1100 >#
b100 Y
b100 S"
b100 ?#
b100 f"
b11010 X
b11010 *"
b11010 A"
b11010 L"
b11010 `"
b100 U
b100 ;"
b100 P"
b100 b"
b100 ]
b100 4"
b100 J"
b100 \"
b10000 f
b10000 x
b10000 G"
b10000 -#
b1000 I
b1000 y
b1000 T"
b1000 i"
b10000000000111000010011 M
b10000000000111000010011 j"
b10000000000111000010011 k"
b10000 9
b10000 u
b10000 ,#
b1100 4
b1100 v
b1100 h"
b1100 q"
b1100 +#
b11 #
1!
#175
0!
#200
b11111111111111111111111111111110 w
b111110 D
b111110 U"
b111110 7#
b10100 5
b10100 *#
b10100 1#
b10100 3#
b11111111111111111111111111111111 N
b11111111111111111111111111111111 W"
b11111111111111111111111111111111 l"
b11111111111111111111111111111111 o"
b111111111111 n"
b1111111000 H"
b1111 H
b1111 K"
b11111 E
b11111 @"
b11111 O"
b11111 6#
b0 -
b0 "#
b0 (#
b0 9#
b0 <#
b0 =#
b11110011010000110010110011 B
b11110011010000110010110011 g"
b11110011010000110010110011 p"
b10100 6
b10100 .#
b10100 0#
b10100 /#
b1010 f
b1010 x
b1010 G"
b1010 -#
b1100 I
b1100 y
b1100 T"
b1100 i"
b11111111111100000000011110010011 M
b11111111111100000000011110010011 j"
b11111111111100000000011110010011 k"
b10000 _
b10000 Z"
b10000 >#
b1000 Y
b1000 S"
b1000 ?#
b1000 f"
b11100 X
b11100 *"
b11100 A"
b11100 L"
b11100 `"
b11010 =
b11010 )"
b11010 9"
b11010 t"
b11010 2"
b100 A
b100 &"
b100 ,"
b100 -"
b100 r"
b100 }"
b100 %#
b11000 /
b11000 :"
b11000 w"
b11000 z"
b11000 4#
b0 ,
b0 s"
b0 :#
b0 x"
1.
b10100 9
b10100 u
b10100 ,#
b10000 4
b10000 v
b10000 h"
b10000 q"
b10000 +#
b100 #
1!
#225
0!
#250
b11111111111111111111111111111111 b
b11111111111111111111111111111111 k
b11111111111111111111111111111111 '"
b11111111111111111111111111111111 o
b100000111000 w
0O
0}
b10 P
b10 z
b10 E"
b10 |
b111000 D
b111000 U"
b111000 7#
b100 F
b100 V"
b100 8#
b11000 5
b11000 *#
b11000 1#
b11000 3#
b100 -
b100 "#
b100 (#
b100 9#
b100 <#
b100 =#
b11111111111111111111111111111111 h
b11111111111111111111111111111111 l
b11111111111111111111111111111111 3"
b11111111111111111111111111111111 6"
b111110 i
b111110 +"
b111110 5"
b111110 $#
b111110 )#
b10000011100 N
b10000011100 W"
b10000011100 l"
b10000011100 o"
b10000011100 n"
b110011 m"
b1000 H"
b110011 {
b11001 H
b11001 K"
b11100 E
b11100 @"
b11100 O"
b11100 6#
b11010 G
b11010 ?"
b11010 M"
b11010 5#
b11111111111111010000110100010011 B
b11111111111111010000110100010011 g"
b11111111111111010000110100010011 p"
b11000 6
b11000 .#
b11000 0#
b11000 /#
b11010 /
b11010 :"
b11010 w"
b11010 z"
b11010 4#
b100 ,
b100 s"
b100 :#
b100 x"
b11100 =
b11100 )"
b11100 9"
b11100 t"
b11100 2"
b1010 _
b1010 Z"
b1010 >#
b1100 Y
b1100 S"
b1100 ?#
b1100 f"
b1111111000 ^
b1111111000 q
b1111111000 I"
b1111111000 ["
b1111 X
b1111 *"
b1111 A"
b1111 L"
b1111 `"
b11111 U
b11111 ;"
b11111 P"
b11111 b"
b11111111111111111111111111111111 ]
b11111111111111111111111111111111 4"
b11111111111111111111111111111111 J"
b11111111111111111111111111111111 \"
b111110 T
b111110 R"
b111110 '#
b111110 d"
b100001001000 f
b100001001000 x
b100001001000 G"
b100001001000 -#
b10000 I
b10000 y
b10000 T"
b10000 i"
b11110011010000110010110011 M
b11110011010000110010110011 j"
b11110011010000110010110011 k"
b11000 9
b11000 u
b11000 ,#
b10100 4
b10100 v
b10100 h"
b10100 q"
b10100 +#
b101 #
1!
#275
0!
#300
b11111111111111111111111111111110 w
1O
1}
b0 P
b0 z
b0 E"
b0 |
b10000 b
b10000 k
b10000 '"
b10000 o
b111110 D
b111110 U"
b111110 7#
b11100 5
b11100 *#
b11100 1#
b11100 3#
b11111111111111111111111111111111 N
b11111111111111111111111111111111 W"
b11111111111111111111111111111111 l"
b11111111111111111111111111111111 o"
b111111111111 n"
b10011 m"
b1111111000 H"
b10011 {
b11010 H
b11010 K"
b11111 E
b11111 @"
b11111 O"
b11111 6#
b11 d
b11 n
b11 p
b11 s
b100 h
b100 l
b100 3"
b100 6"
b100 j
b100 m
b100 |"
b100 ##
b100 i
b100 +"
b100 5"
b100 $#
b100 )#
b1 Q
b1 8"
b1 &#
b1 >"
b11001010110110000011 B
b11001010110110000011 g"
b11001010110110000011 p"
b11100 6
b11100 .#
b11100 0#
b11100 /#
b10010 f
b10010 x
b10010 G"
b10010 -#
b10100 I
b10100 y
b10100 T"
b10100 i"
b11111111111111010000110100010011 M
b11111111111111010000110100010011 j"
b11111111111111010000110100010011 k"
b100001001000 _
b100001001000 Z"
b100001001000 >#
b10000 Y
b10000 S"
b10000 ?#
b10000 f"
b1000 ^
b1000 q
b1000 I"
b1000 ["
b11001 X
b11001 *"
b11001 A"
b11001 L"
b11001 `"
b11100 U
b11100 ;"
b11100 P"
b11100 b"
b11010 W
b11010 <"
b11010 N"
b11010 a"
b10 c
b10 r
b10 F"
b10 X"
0a
0Y"
b10000011100 ]
b10000011100 4"
b10000011100 J"
b10000011100 \"
b111000 T
b111000 R"
b111000 '#
b111000 d"
b100 V
b100 Q"
b100 !#
b100 c"
b1111 =
b1111 )"
b1111 9"
b1111 t"
b1111 2"
b111110 e
b111110 %"
b111110 ("
b111110 1"
b11111111111111111111111111111111 A
b11111111111111111111111111111111 &"
b11111111111111111111111111111111 ,"
b11111111111111111111111111111111 -"
b11111111111111111111111111111111 r"
b11111111111111111111111111111111 }"
b11111111111111111111111111111111 %#
b11100 /
b11100 :"
b11100 w"
b11100 z"
b11100 4#
b11100 9
b11100 u
b11100 ,#
b11000 4
b11000 v
b11000 h"
b11000 q"
b11000 +#
b110 #
1!
#325
0!
#350
b111110 i
b111110 +"
b111110 5"
b111110 $#
b111110 )#
b11 b
b11 k
b11 '"
b11 o
b0 w
1L
1~
1J
1""
b0 D
b0 U"
b0 7#
b11111111111111111111111111100111 F
b11111111111111111111111111100111 V"
b11111111111111111111111111100111 8#
b100000 5
b100000 *#
b100000 1#
b100000 3#
b11111111111111111111111111111111 -
b11111111111111111111111111111111 "#
b11111111111111111111111111111111 (#
b11111111111111111111111111111111 9#
b11111111111111111111111111111111 <#
b11111111111111111111111111111111 =#
b0 Q
b0 8"
b0 &#
b0 >"
b10 d
b10 n
b10 p
b10 s
b11111111111111111111111111111111 h
b11111111111111111111111111111111 l
b11111111111111111111111111111111 3"
b11111111111111111111111111111111 6"
b0 N
b0 W"
b0 l"
b0 o"
b0 n"
b100000011 m"
b10 H"
b11 {
b11011 H
b11011 K"
b0 E
b0 @"
b0 O"
b0 6#
b11001 G
b11001 ?"
b11001 M"
b11001 5#
b1101111000000110000110011 B
b1101111000000110000110011 g"
b1101111000000110000110011 p"
b100000 6
b100000 .#
b100000 0#
b100000 /#
b1111 /
b1111 :"
b1111 w"
b1111 z"
b1111 4#
b11111111111111111111111111111111 ,
b11111111111111111111111111111111 s"
b11111111111111111111111111111111 :#
b11111111111111111111111111111111 x"
b11001 =
b11001 )"
b11001 9"
b11001 t"
b11001 2"
b100 e
b100 %"
b100 ("
b100 1"
b10000 A
b10000 &"
b10000 ,"
b10000 -"
b10000 r"
b10000 }"
b10000 %#
b10010 _
b10010 Z"
b10010 >#
b10100 Y
b10100 S"
b10100 ?#
b10100 f"
b1111111000 ^
b1111111000 q
b1111111000 I"
b1111111000 ["
b11010 X
b11010 *"
b11010 A"
b11010 L"
b11010 `"
b11111 U
b11111 ;"
b11111 P"
b11111 b"
b0 c
b0 r
b0 F"
b0 X"
1a
1Y"
b11111111111111111111111111111111 ]
b11111111111111111111111111111111 4"
b11111111111111111111111111111111 J"
b11111111111111111111111111111111 \"
b111110 T
b111110 R"
b111110 '#
b111110 d"
b11000 f
b11000 x
b11000 G"
b11000 -#
b11000 I
b11000 y
b11000 T"
b11000 i"
b11001010110110000011 M
b11001010110110000011 j"
b11001010110110000011 k"
b100000 9
b100000 u
b100000 ,#
b11100 4
b11100 v
b11100 h"
b11100 q"
b11100 +#
b111 #
1!
#375
0!
#400
b11000 w
0L
0~
0J
0""
0C
0#"
0O
0}
b11111111111111111111111111100101 D
b11111111111111111111111111100101 U"
b11111111111111111111111111100101 7#
03
0C"
11
1D"
1:
1B"
b10000 b
b10000 k
b10000 '"
b10000 o
b0 F
b0 V"
b0 8#
b100100 5
b100100 *#
b100100 1#
b100100 3#
b1100 N
b1100 W"
b1100 l"
b1100 o"
b1100 n"
b110011 m"
b0 H"
b110011 {
b11000 H
b11000 K"
b11011 E
b11011 @"
b11011 O"
b11011 6#
b11000 G
b11000 ?"
b11000 M"
b11000 5#
b0 h
b0 l
b0 3"
b0 6"
b10000 j
b10000 m
b10000 |"
b10000 ##
b0 i
b0 +"
b0 5"
b0 $#
b0 )#
b1 R
b1 7"
b1 ~"
b1 ="
b10000 -
b10000 "#
b10000 (#
b10000 9#
b10000 <#
b10000 =#
b111111010000010001100011 B
b111111010000010001100011 g"
b111111010000010001100011 p"
b100100 6
b100100 .#
b100100 0#
b100100 /#
b110100 f
b110100 x
b110100 G"
b110100 -#
b11100 I
b11100 y
b11100 T"
b11100 i"
b1101111000000110000110011 M
b1101111000000110000110011 j"
b1101111000000110000110011 k"
b11000 _
b11000 Z"
b11000 >#
b11000 Y
b11000 S"
b11000 ?#
b11000 f"
b10 ^
b10 q
b10 I"
b10 ["
b11011 X
b11011 *"
b11011 A"
b11011 L"
b11011 `"
b0 U
b0 ;"
b0 P"
b0 b"
b11001 W
b11001 <"
b11001 N"
b11001 a"
1\
1]"
1Z
1_"
b0 ]
b0 4"
b0 J"
b0 \"
b0 T
b0 R"
b0 '#
b0 d"
b11111111111111111111111111100111 V
b11111111111111111111111111100111 Q"
b11111111111111111111111111100111 !#
b11111111111111111111111111100111 c"
b11010 =
b11010 )"
b11010 9"
b11010 t"
b11010 2"
b111110 e
b111110 %"
b111110 ("
b111110 1"
b11 A
b11 &"
b11 ,"
b11 -"
b11 r"
b11 }"
b11 %#
b11001 /
b11001 :"
b11001 w"
b11001 z"
b11001 4#
b10000 ,
b10000 s"
b10000 :#
b10000 x"
b100100 9
b100100 u
b100100 ,#
b100000 4
b100000 v
b100000 h"
b100000 q"
b100000 +#
b1000 #
1!
#425
0!
