CA2022_lab2/codes/CPU.vcd
$date
	Tue Jan  3 16:48:23 2023
$end
$version
	Icarus Verilog
$end
$timescale
	1s
$end
$scope module TestBench $end
$var reg 1 ! Clk $end
$var reg 1 " Reset $end
$var integer 32 # counter [31:0] $end
$var integer 32 $ i [31:0] $end
$var integer 32 % outfile [31:0] $end
$scope module CPU $end
$var wire 1 & Flush $end
$var wire 1 ! clk_i $end
$var wire 1 " rst_i $end
$var wire 1 ' start_i $end
$var wire 1 ( result $end
$var wire 1 ) prediction $end
$var wire 1 * Zero $end
$var wire 32 + WBWriteData1 [31:0] $end
$var wire 32 , WBWriteData0 [31:0] $end
$var wire 32 - WBWriteData [31:0] $end
$var wire 1 . WBRegWrite $end
$var wire 5 / WBRDaddr [4:0] $end
$var wire 1 0 WBMemtoReg $end
$var wire 1 1 Stall $end
$var wire 1 2 PredFlush $end
$var wire 1 3 PCWrite $end
$var wire 32 4 PCValueOld [31:0] $end
$var wire 32 5 PCValueNewNew [31:0] $end
$var wire 32 6 PCValueNew [31:0] $end
$var wire 32 7 PCRight [31:0] $end
$var wire 1 8 PCMUXCtrl $end
$var wire 32 9 PCAM [31:0] $end
$var wire 1 : NoOp $end
$var wire 1 ; MEMRegWrite $end
$var wire 32 < MEMReadData [31:0] $end
$var wire 5 = MEMRDaddr [4:0] $end
$var wire 1 > MEMMemtoReg $end
$var wire 1 ? MEMMemWrite $end
$var wire 1 @ MEMMemRead $end
$var wire 32 A MEMALUResult [31:0] $end
$var wire 32 B IFInst [31:0] $end
$var wire 1 C IDRegWrite $end
$var wire 32 D IDRS2data [31:0] $end
$var wire 5 E IDRS2addr [4:0] $end
$var wire 32 F IDRS1data [31:0] $end
$var wire 5 G IDRS1addr [4:0] $end
$var wire 5 H IDRDaddr [4:0] $end
$var wire 32 I IDPC [31:0] $end
$var wire 1 J IDMemtoReg $end
$var wire 1 K IDMemWrite $end
$var wire 1 L IDMemRead $end
$var wire 32 M IDInst [31:0] $end
$var wire 32 N IDImm [31:0] $end
$var wire 1 O IDALUSrc $end
$var wire 2 P IDALUOp [1:0] $end
$var wire 2 Q ForwardB [1:0] $end
$var wire 2 R ForwardA [1:0] $end
$var wire 1 S EXRegWrite $end
$var wire 32 T EXRS2data [31:0] $end
$var wire 5 U EXRS2addr [4:0] $end
$var wire 32 V EXRS1data [31:0] $end
$var wire 5 W EXRS1addr [4:0] $end
$var wire 5 X EXRDaddr [4:0] $end
$var wire 32 Y EXPC [31:0] $end
$var wire 1 Z EXMemtoReg $end
$var wire 1 [ EXMemWrite $end
$var wire 1 \ EXMemRead $end
$var wire 32 ] EXImm [31:0] $end
$var wire 10 ^ EXFucnt [9:0] $end
$var wire 32 _ EXBranchPC [31:0] $end
$var wire 1 ` EXBranch $end
$var wire 1 a EXALUSrc $end
$var wire 32 b EXALUResult [31:0] $end
$var wire 2 c EXALUOp [1:0] $end
$var wire 3 d EXALUCtrl [2:0] $end
$var wire 32 e DMWriteData [31:0] $end
$var wire 32 f BranchPC [31:0] $end
$var wire 1 g Branch $end
$var wire 32 h ALUParameter3 [31:0] $end
$var wire 32 i ALUParameter2 [31:0] $end
$var wire 32 j ALUParameter1 [31:0] $end
$scope module ALU $end
$var wire 1 * Zero_o $end
$var wire 32 k data_o [31:0] $end
$var wire 32 l data2_i [31:0] $end
$var wire 32 m data1_i [31:0] $end
$var wire 3 n ALUCtrl_i [2:0] $end
$var reg 1 * Zero $end
$var reg 32 o data [31:0] $end
$upscope $end
$scope module ALU_Control $end
$var wire 3 p ALUCtrl_o [2:0] $end
$var wire 10 q Funct_i [9:0] $end
$var wire 2 r ALUOp_i [1:0] $end
$var reg 3 s ALUCtrl [2:0] $end
$upscope $end
$scope module AND1 $end
$var wire 1 * data1_i $end
$var wire 1 ( data_o $end
$var wire 1 ` data0_i $end
$upscope $end
$scope module AND2 $end
$var wire 1 8 data_o $end
$var wire 1 ) data1_i $end
$var wire 1 g data0_i $end
$upscope $end
$scope module Add_PC $end
$var wire 32 t data1_in [31:0] $end
$var wire 32 u data_o [31:0] $end
$var wire 32 v data2_in [31:0] $end
$upscope $end
$scope module Adder $end
$var wire 32 w data1_in [31:0] $end
$var wire 32 x data_o [31:0] $end
$var wire 32 y data2_in [31:0] $end
$upscope $end
$scope module Control $end
$var wire 2 z ALUOp_o [1:0] $end
$var wire 1 O ALUSrc_o $end
$var wire 1 g Branch_o $end
$var wire 1 L MemRead_o $end
$var wire 1 K MemWrite_o $end
$var wire 1 J MemtoReg_o $end
$var wire 7 { Op_i [6:0] $end
$var wire 1 C RegWrite_o $end
$var wire 1 : NoOp_i $end
$var reg 2 | ALUOp [1:0] $end
$var reg 1 } ALUSrc $end
$var reg 1 g Branch $end
$var reg 1 ~ MemRead $end
$var reg 1 !" MemWrite $end
$var reg 1 "" MemtoReg $end
$var reg 1 #" RegWrite $end
$upscope $end
$scope module Data_Memory $end
$var wire 1 ! clk_i $end
$var wire 32 $" data_o [31:0] $end
$var wire 32 %" data_i [31:0] $end
$var wire 32 &" addr_i [31:0] $end
$var wire 1 ? MemWrite_i $end
$var wire 1 @ MemRead_i $end
$upscope $end
$scope module EXMEM $end
$var wire 32 '" ALUResult_i [31:0] $end
$var wire 1 ? MemWrite_o $end
$var wire 1 > MemtoReg_o $end
$var wire 1 ; RegWrite_o $end
$var wire 32 (" WriteData_o [31:0] $end
$var wire 5 )" WriteReg_o [4:0] $end
$var wire 1 ! clk_i $end
$var wire 5 *" WriteReg_i [4:0] $end
$var wire 32 +" WriteData_i [31:0] $end
$var wire 1 S RegWrite_i $end
$var wire 1 Z MemtoReg_i $end
$var wire 1 [ MemWrite_i $end
$var wire 1 @ MemRead_o $end
$var wire 1 \ MemRead_i $end
$var wire 32 ," ALUResult_o [31:0] $end
$var reg 32 -" ALUResult_r [31:0] $end
$var reg 1 @ MemRead_r $end
$var reg 1 ." MemWrite_r $end
$var reg 1 /" MemtoReg_r $end
$var reg 1 0" RegWrite_r $end
$var reg 32 1" WriteData_r [31:0] $end
$var reg 5 2" WriteReg_r [4:0] $end
$upscope $end
$scope module EXMUX $end
$var wire 32 3" data_o [31:0] $end
$var wire 32 4" data1_i [31:0] $end
$var wire 32 5" data0_i [31:0] $end
$var wire 1 a ctrl_i $end
$var reg 32 6" data_r [31:0] $end
$upscope $end
$scope module ForwardingUnit $end
$var wire 2 7" ForwardA_o [1:0] $end
$var wire 2 8" ForwardB_o [1:0] $end
$var wire 5 9" MEMRd_i [4:0] $end
$var wire 1 ; MEMRegWrite_i $end
$var wire 1 . WBRegWrite_i $end
$var wire 5 :" WBRd_i [4:0] $end
$var wire 5 ;" PRS2_i [4:0] $end
$var wire 5 <" PRS1_i [4:0] $end
$var reg 2 =" ForwardA_r [1:0] $end
$var reg 2 >" ForwardB_r [1:0] $end
$upscope $end
$scope module Hazard_Detection $end
$var wire 1 : NoOp_o $end
$var wire 1 3 PCWrite_o $end
$var wire 5 ?" RS1addr_i [4:0] $end
$var wire 5 @" RS2addr_i [4:0] $end
$var wire 1 1 Stall_o $end
$var wire 5 A" PRD_i [4:0] $end
$var wire 1 \ MemRead_i $end
$var reg 1 B" NoOp_r $end
$var reg 1 C" PCWrite_r $end
$var reg 1 D" Stall_r $end
$upscope $end
$scope module ID_EX $end
$var wire 2 E" ALUOp_i [1:0] $end
$var wire 2 F" ALUOp_o [1:0] $end
$var wire 1 O ALUSrc_i $end
$var wire 1 a ALUSrc_o $end
$var wire 32 G" BranchPC_i [31:0] $end
$var wire 1 g Branch_i $end
$var wire 10 H" Funct_i [9:0] $end
$var wire 10 I" Funct_o [9:0] $end
$var wire 32 J" Imm_o [31:0] $end
$var wire 1 L MemRead_i $end
$var wire 1 \ MemRead_o $end
$var wire 1 K MemWrite_i $end
$var wire 1 [ MemWrite_o $end
$var wire 1 J MemtoReg_i $end
$var wire 1 Z MemtoReg_o $end
$var wire 5 K" PRD_i [4:0] $end
$var wire 5 L" PRD_o [4:0] $end
$var wire 5 M" PRS1_i [4:0] $end
$var wire 5 N" PRS1_o [4:0] $end
$var wire 5 O" PRS2_i [4:0] $end
$var wire 5 P" PRS2_o [4:0] $end
$var wire 32 Q" RS1data_o [31:0] $end
$var wire 32 R" RS2data_o [31:0] $end
$var wire 1 C RegWrite_i $end
$var wire 1 S RegWrite_o $end
$var wire 1 ! clk_i $end
$var wire 32 S" pc_o [31:0] $end
$var wire 32 T" pc_i [31:0] $end
$var wire 1 2 flush_i $end
$var wire 32 U" RS2data_i [31:0] $end
$var wire 32 V" RS1data_i [31:0] $end
$var wire 32 W" Imm_i [31:0] $end
$var wire 1 ` Branch_o $end
$var reg 2 X" ALUOp_r [1:0] $end
$var reg 1 Y" ALUSrc_r $end
$var reg 32 Z" BranchPC_o [31:0] $end
$var reg 1 ` Branch_r $end
$var reg 10 [" Funct_r [9:0] $end
$var reg 32 \" Imm_r [31:0] $end
$var reg 1 ]" MemRead_r $end
$var reg 1 ^" MemWrite_r $end
$var reg 1 _" MemtoReg_r $end
$var reg 5 `" PRD_r [4:0] $end
$var reg 5 a" PRS1_r [4:0] $end
$var reg 5 b" PRS2_r [4:0] $end
$var reg 32 c" RS1data_r [31:0] $end
$var reg 32 d" RS2data_r [31:0] $end
$var reg 1 e" RegWrite_r $end
$var reg 32 f" pc_r [31:0] $end
$upscope $end
$scope module IF_ID $end
$var wire 1 ! clk_i $end
$var wire 1 & flush_i $end
$var wire 1 " rst_i $end
$var wire 1 1 stall_i $end
$var wire 32 g" inst_i [31:0] $end
$var wire 32 h" PC_i [31:0] $end
$var reg 32 i" PC_o [31:0] $end
$var reg 32 j" inst_o [31:0] $end
$upscope $end
$scope module ImmGen $end
$var wire 32 k" data_i [31:0] $end
$var wire 32 l" data_o [31:0] $end
$var wire 10 m" funct [9:0] $end
$var reg 12 n" Imm12 [11:0] $end
$var reg 32 o" data [31:0] $end
$upscope $end
$scope module Instruction_Memory $end
$var wire 32 p" instr_o [31:0] $end
$var wire 32 q" addr_i [31:0] $end
$upscope $end
$scope module MEMWB $end
$var wire 32 r" ALUResult_i [31:0] $end
$var wire 32 s" ALUResult_o [31:0] $end
$var wire 1 > MemtoReg_i $end
$var wire 1 0 MemtoReg_o $end
$var wire 5 t" PRD_i [4:0] $end
$var wire 32 u" ReadData_i [31:0] $end
$var wire 32 v" ReadData_o [31:0] $end
$var wire 1 ; RegWrite_i $end
$var wire 1 ! clk_i $end
$var wire 1 . RegWrite_o $end
$var wire 5 w" PRD_o [4:0] $end
$var reg 32 x" ALUResult_r [31:0] $end
$var reg 1 y" MemtoReg_r $end
$var reg 5 z" PRD_r [4:0] $end
$var reg 32 {" ReadData_r [31:0] $end
$var reg 1 . RegWrite_r $end
$upscope $end
$scope module MUX2A $end
$var wire 32 |" ALUParameter_o [31:0] $end
$var wire 32 }" ALUResult_i [31:0] $end
$var wire 2 ~" Forward_i [1:0] $end
$var wire 32 !# RSdata_i [31:0] $end
$var wire 32 "# WriteData_i [31:0] $end
$var reg 32 ## ALUParameter_r [31:0] $end
$upscope $end
$scope module MUX2B $end
$var wire 32 $# ALUParameter_o [31:0] $end
$var wire 32 %# ALUResult_i [31:0] $end
$var wire 2 &# Forward_i [1:0] $end
$var wire 32 '# RSdata_i [31:0] $end
$var wire 32 (# WriteData_i [31:0] $end
$var reg 32 )# ALUParameter_r [31:0] $end
$upscope $end
$scope module PC $end
$var wire 1 3 PCWrite_i $end
$var wire 1 ! clk_i $end
$var wire 1 " rst_i $end
$var wire 32 *# pc_i [31:0] $end
$var reg 32 +# pc_o [31:0] $end
$upscope $end
$scope module PCMUX $end
$var wire 1 8 ctrl_i $end
$var wire 32 ,# data0_i [31:0] $end
$var wire 32 -# data1_i [31:0] $end
$var wire 32 .# data_o [31:0] $end
$var reg 32 /# data_r [31:0] $end
$upscope $end
$scope module PREDMUX $end
$var wire 32 0# data0_i [31:0] $end
$var wire 32 1# data_o [31:0] $end
$var wire 32 2# data1_i [31:0] $end
$var wire 1 2 ctrl_i $end
$var reg 32 3# data_r [31:0] $end
$upscope $end
$scope module Registers $end
$var wire 5 4# RDaddr_i [4:0] $end
$var wire 5 5# RS1addr_i [4:0] $end
$var wire 5 6# RS2addr_i [4:0] $end
$var wire 1 . RegWrite_i $end
$var wire 1 ! clk_i $end
$var wire 32 7# RS2data_o [31:0] $end
$var wire 32 8# RS1data_o [31:0] $end
$var wire 32 9# RDdata_i [31:0] $end
$upscope $end
$scope module WBMUX $end
$var wire 1 0 ctrl_i $end
$var wire 32 :# data0_i [31:0] $end
$var wire 32 ;# data1_i [31:0] $end
$var wire 32 <# data_o [31:0] $end
$var reg 32 =# data_r [31:0] $end
$upscope $end
$scope module branch_predictor $end
$var wire 32 ># branchtarget_i [31:0] $end
$var wire 1 ! clk_i $end
$var wire 32 ?# pc_i [31:0] $end
$var wire 1 ( result_i $end
$var wire 1 " rst_i $end
$var wire 1 ` update_i $end
$var wire 1 ) predict_o $end
$var wire 1 2 flush_o $end
$var reg 1 2 flush_r $end
$var reg 32 @# pc_o [31:0] $end
$var reg 1 ) predict_r $end
$var reg 2 A# state [1:0] $end
$var reg 2 B# statetemp [1:0] $end
$upscope $end
$upscope $end
$upscope $end
$enddefinitions $end
#0
$dumpvars
b0 B#
b0 A#
b0 @#
b0 ?#
bx >#
b0 =#
b0 <#
b0 ;#
b0 :#
b0 9#
bx 8#
bx 7#
bx 6#
bx 5#
b0 4#
bx 3#
b0 2#
bx 1#
bx 0#
bx /#
bx .#
bx -#
bx ,#
bx +#
bx *#
bx )#
b0 (#
bx '#
b0 &#
bx %#
bx $#
bx ##
b0 "#
bx !#
b0 ~"
bx }"
bx |"
b0 {"
b0 z"
0y"
b0 x"
b0 w"
b0 v"
b0 u"
b0 t"
b0 s"
bx r"
bx q"
bx p"
b0xxxxxxxxxxxx o"
bx n"
bx m"
b0xxxxxxxxxxxx l"
bx k"
bx j"
bx i"
bx h"
bx g"
b0 f"
0e"
bx d"
bx c"
b0 b"
b0 a"
b0 `"
0_"
0^"
0]"
b0 \"
b0 ["
bx Z"
0Y"
b0 X"
b0xxxxxxxxxxxx W"
bx V"
bx U"
bx T"
b0 S"
bx R"
bx Q"
b0 P"
bx O"
b0 N"
bx M"
b0 L"
bx K"
b0 J"
b0 I"
bx H"
bx G"
b0 F"
b0 E"
0D"
1C"
0B"
b0 A"
bx @"
bx ?"
b0 >"
b0 ="
b0 <"
b0 ;"
b0 :"
b0 9"
b0 8"
b0 7"
bx 6"
bx 5"
b0 4"
bx 3"
b0 2"
bx 1"
00"
0/"
0."
bx -"
bx ,"
bx +"
b0 *"
b0 )"
bx ("
bx '"
bx &"
bx %"
b0 $"
0#"
0""
0!"
0~
0}
b0 |
bx {
b0 z
bx y
bx x
b0xxxxxxxxxxxx0 w
bx v
bx u
b100 t
b10 s
b0 r
b0 q
b10 p
bx o
b10 n
bx m
bx l
bx k
bx j
bx i
bx h
0g
bx f
bx e
b10 d
b0 c
bx b
0a
0`
bx _
b0 ^
b0 ]
0\
0[
0Z
b0 Y
b0 X
b0 W
bx V
b0 U
bx T
0S
b0 R
b0 Q
b0 P
0O
b0xxxxxxxxxxxx N
bx M
0L
0K
0J
bx I
bx H
bx G
bx F
bx E
bx D
0C
bx B
bx A
0@
0?
0>
b0 =
b0 <
0;
0:
bx 9
08
b0 7
bx 6
bx 5
bx 4
13
02
01
00
b0 /
0.
b0 -
b0 ,
b0 +
0*
1)
0(
z'
0&
b11 %
b100000 $
b0 #
0"
1!
$end
#12
b100 5
b100 *#
b100 1#
b100 3#
b10100000000000100010011 B
b10100000000000100010011 g"
b10100000000000100010011 p"
b100 6
b100 .#
b100 0#
b100 /#
b100 9
b100 u
b100 ,#
b0 4
b0 v
b0 h"
b0 q"
b0 +#
1"
#24
0"
#25
0!
#50
b1010 f
b1010 x
b1010 G"
b1010 -#
b1010 w
1C
1#"
1O
1}
b0 D
b0 U"
b0 7#
b0 F
b0 V"
b0 8#
b1000 5
b1000 *#
b1000 1#
b1000 3#
bx -
bx "#
bx (#
bx 9#
bx <#
bx =#
b101 N
b101 W"
b101 l"
b101 o"
b101 n"
b10011 m"
b0 H"
b10011 {
b10 H
b10 K"
b101 E
b101 @"
b101 O"
b101 6#
b0 G
b0 ?"
b0 M"
b0 5#
b100000000000010010011 B
b100000000000010010011 g"
b100000000000010010011 p"
b1000 6
b1000 .#
b1000 0#
b1000 /#
bx ,
bx s"
bx :#
bx x"
bx Y
bx S"
bx ?#
bx f"
bx ^
bx q
bx I"
bx ["
bx X
bx *"
bx A"
bx L"
bx `"
bx U
bx ;"
bx P"
bx b"
bx W
bx <"
bx N"
bx a"
b0xxxxxxxxxxxx ]
b0xxxxxxxxxxxx 4"
b0xxxxxxxxxxxx J"
b0xxxxxxxxxxxx \"
b0 I
b0 y
b0 T"
b0 i"
b10100000000000100010011 M
b10100000000000100010011 j"
b10100000000000100010011 k"
b1000 9
b1000 u
b1000 ,#
b100 4
b100 v
b100 h"
b100 q"
b100 +#
b1 #
1!
#75
0!
#100
b10 w
b101 b
b101 k
b101 '"
b101 o
b1100 5
b1100 *#
b1100 1#
b1100 3#
b1 N
b1 W"
b1 l"
b1 o"
b1 n"
b1 H
b1 K"
b1 E
b1 @"
b1 O"
b1 6#
b101 h
b101 l
b101 3"
b101 6"
b0 i
b0 +"
b0 5"
b0 $#
b0 )#
b0 j
b0 m
b0 |"
b0 ##
b10000000001000010001100011 B
b10000000001000010001100011 g"
b10000000001000010001100011 p"
b1100 6
b1100 .#
b1100 0#
b1100 /#
b110 f
b110 x
b110 G"
b110 -#
b100 I
b100 y
b100 T"
b100 i"
b100000000000010010011 M
b100000000000010010011 j"
b100000000000010010011 k"
b1010 _
b1010 Z"
b1010 >#
b0 Y
b0 S"
b0 ?#
b0 f"
b0 ^
b0 q
b0 I"
b0 ["
b10 X
b10 *"
b10 A"
b10 L"
b10 `"
b101 U
b101 ;"
b101 P"
b101 b"
b0 W
b0 <"
b0 N"
b0 a"
1a
1Y"
1S
1e"
b101 ]
b101 4"
b101 J"
b101 \"
b0 T
b0 R"
b0 '#
b0 d"
b0 V
b0 Q"
b0 !#
b0 c"
bx =
bx )"
bx 9"
bx t"
bx 2"
b1100 9
b1100 u
b1100 ,#
b1000 4
b1000 v
b1000 h"
b1000 q"
b1000 +#
b10 #
1!
#125
0!
#150
1&
18
b1 b
b1 k
b1 '"
b1 o
b101000 w
1g
0C
0#"
0O
0}
b1 P
b1 z
b1 E"
b1 |
b110000 5
b110000 *#
b110000 1#
b110000 3#
b1 h
b1 l
b1 3"
b1 6"
b10100 N
b10100 W"
b10100 l"
b10100 o"
b10100 n"
b1100011 m"
b1000 H"
b1100011 {
b1000 H
b1000 K"
b0 E
b0 @"
b0 O"
b0 6#
b1 G
b1 ?"
b1 M"
b1 5#
b100001000000010010011 B
b100001000000010010011 g"
b100001000000010010011 p"
b110000 6
b110000 .#
b110000 0#
b110000 /#
bx /
bx :"
bx w"
bx z"
bx 4#
b10 =
b10 )"
b10 9"
b10 t"
b10 2"
b0 e
b0 %"
b0 ("
b0 1"
b101 A
b101 &"
b101 ,"
b101 -"
b101 r"
b101 }"
b101 %#
1;
10"
b110 _
b110 Z"
b110 >#
b100 Y
b100 S"
b100 ?#
b100 f"
b1 X
b1 *"
b1 A"
b1 L"
b1 `"
b1 U
b1 ;"
b1 P"
b1 b"
b1 ]
b1 4"
b1 J"
b1 \"
b110000 f
b110000 x
b110000 G"
b110000 -#
b1000 I
b1000 y
b1000 T"
b1000 i"
b10000000001000010001100011 M
b10000000001000010001100011 j"
b10000000001000010001100011 k"
b10000 9
b10000 u
b10000 ,#
b1100 4
b1100 v
b1100 h"
b1100 q"
b1100 +#
b11 #
1!
#175
0!
#200
08
b0 w
0g
b0 P
b0 z
b0 E"
b0 |
b1100 5
b1100 *#
b1100 1#
b1100 3#
b0 N
b0 W"
b0 l"
b0 o"
b0 n"
b0 m"
b0 H"
b0 {
b0 H
b0 K"
b0 G
b0 ?"
b0 M"
b0 5#
b1100 7
b1100 2#
b1100 @#
12
b1 B#
b110 d
b110 n
b110 p
b110 s
b0 h
b0 l
b0 3"
b0 6"
b1 j
b1 m
b1 |"
b1 ##
b101 -
b101 "#
b101 (#
b101 9#
b101 <#
b101 =#
b10 R
b10 7"
b10 ~"
b10 ="
b0 B
b0 g"
b0 p"
b110100 6
b110100 .#
b110100 0#
b110100 /#
b0 f
b0 x
b0 G"
b0 -#
b0 I
b0 y
b0 T"
b0 i"
b0 M
b0 j"
b0 k"
b110000 _
b110000 Z"
b110000 >#
b1000 Y
b1000 S"
b1000 ?#
b1000 f"
1`
b1000 ^
b1000 q
b1000 I"
b1000 ["
b1000 X
b1000 *"
b1000 A"
b1000 L"
b1000 `"
b0 U
b0 ;"
b0 P"
b0 b"
b1 W
b1 <"
b1 N"
b1 a"
b1 c
b1 r
b1 F"
b1 X"
0a
0Y"
0S
0e"
b10100 ]
b10100 4"
b10100 J"
b10100 \"
b1 =
b1 )"
b1 9"
b1 t"
b1 2"
b1 A
b1 &"
b1 ,"
b1 -"
b1 r"
b1 }"
b1 %#
b10 /
b10 :"
b10 w"
b10 z"
b10 4#
b101 ,
b101 s"
b101 :#
b101 x"
1.
b110100 9
b110100 u
b110100 ,#
b110000 4
b110000 v
b110000 h"
b110000 q"
b110000 +#
b100 #
1!
#225
0!
#250
b0 b
b0 k
b0 '"
b0 o
b0 j
b0 m
b0 |"
b0 ##
b1 -
b1 "#
b1 (#
b1 9#
b1 <#
b1 =#
b0 7
b0 2#
b0 @#
b0 R
b0 7"
b0 ~"
b0 ="
b10 d
b10 n
b10 p
b10 s
b100001000000010010011 B
b100001000000010010011 g"
b100001000000010010011 p"
b10000 6
b10000 .#
b10000 0#
b10000 /#
b1 A#
b1 /
b1 :"
b1 w"
b1 z"
b1 4#
b1 ,
b1 s"
b1 :#
b1 x"
b1000 =
b1000 )"
b1000 9"
b1000 t"
b1000 2"
0;
00"
b0 _
b0 Z"
b0 >#
b0 Y
b0 S"
b0 ?#
b0 f"
0`
b0 ^
b0 q
b0 I"
b0 ["
b0 X
b0 *"
b0 A"
b0 L"
b0 `"
b0 W
b0 <"
b0 N"
b0 a"
b0 c
b0 r
b0 F"
b0 X"
b0 ]
b0 4"
b0 J"
b0 \"
b10000 9
b10000 u
b10000 ,#
b1100 4
b1100 v
b1100 h"
b1100 q"
b1100 +#
0&
b10000 5
b10000 *#
b10000 1#
b10000 3#
b101 #
02
1!
#275
0!
#300
b10 w
1C
1#"
1O
1}
b1 D
b1 U"
b1 7#
b1 F
b1 V"
b1 8#
b10100 5
b10100 *#
b10100 1#
b10100 3#
b1 N
b1 W"
b1 l"
b1 o"
b1 n"
b10011 m"
b10011 {
b1 H
b1 K"
b1 E
b1 @"
b1 O"
b1 6#
b1 G
b1 ?"
b1 M"
b1 5#
b1000001000100001100011 B
b1000001000100001100011 g"
b1000001000100001100011 p"
b10100 6
b10100 .#
b10100 0#
b10100 /#
b1110 f
b1110 x
b1110 G"
b1110 -#
b1100 I
b1100 y
b1100 T"
b1100 i"
b100001000000010010011 M
b100001000000010010011 j"
b100001000000010010011 k"
b0 =
b0 )"
b0 9"
b0 t"
b0 2"
b0 A
b0 &"
b0 ,"
b0 -"
b0 r"
b0 }"
b0 %#
b1000 /
b1000 :"
b1000 w"
b1000 z"
b1000 4#
0.
b10100 9
b10100 u
b10100 ,#
b10000 4
b10000 v
b10000 h"
b10000 q"
b10000 +#
b110 #
1!
#325
0!
#350
1&
18
b10 b
b10 k
b10 '"
b10 o
b10000 w
1g
0C
0#"
0O
0}
b1 P
b1 z
b1 E"
b1 |
b101 D
b101 U"
b101 7#
b100000 5
b100000 *#
b100000 1#
b100000 3#
b0 -
b0 "#
b0 (#
b0 9#
b0 <#
b0 =#
b1 h
b1 l
b1 3"
b1 6"
b1 i
b1 +"
b1 5"
b1 $#
b1 )#
b1 j
b1 m
b1 |"
b1 ##
b1000 N
b1000 W"
b1000 l"
b1000 o"
b1000 n"
b1100011 m"
b1100011 {
b10000 H
b10000 K"
b10 E
b10 @"
b10 O"
b10 6#
b11111110000000000000110011100011 B
b11111110000000000000110011100011 g"
b11111110000000000000110011100011 p"
b100000 6
b100000 .#
b100000 0#
b100000 /#
b0 /
b0 :"
b0 w"
b0 z"
b0 4#
b0 ,
b0 s"
b0 :#
b0 x"
b1110 _
b1110 Z"
b1110 >#
b1100 Y
b1100 S"
b1100 ?#
b1100 f"
b1 X
b1 *"
b1 A"
b1 L"
b1 `"
b1 U
b1 ;"
b1 P"
b1 b"
b1 W
b1 <"
b1 N"
b1 a"
1a
1Y"
1S
1e"
b1 ]
b1 4"
b1 J"
b1 \"
b1 T
b1 R"
b1 '#
b1 d"
b1 V
b1 Q"
b1 !#
b1 c"
b100000 f
b100000 x
b100000 G"
b100000 -#
b10000 I
b10000 y
b10000 T"
b10000 i"
b1000001000100001100011 M
b1000001000100001100011 j"
b1000001000100001100011 k"
b11000 9
b11000 u
b11000 ,#
b10100 4
b10100 v
b10100 h"
b10100 q"
b10100 +#
b111 #
1!
#375
0!
#400
08
b0 w
0g
b0 P
b0 z
b0 E"
b0 |
b0 D
b0 U"
b0 7#
b0 F
b0 V"
b0 8#
b11111111111111111111111111111101 b
b11111111111111111111111111111101 k
b11111111111111111111111111111101 '"
b11111111111111111111111111111101 o
b10100 5
b10100 *#
b10100 1#
b10100 3#
b0 N
b0 W"
b0 l"
b0 o"
b0 n"
b0 m"
b0 {
b0 H
b0 K"
b0 E
b0 @"
b0 O"
b0 6#
b0 G
b0 ?"
b0 M"
b0 5#
b10100 7
b10100 2#
b10100 @#
12
b10 B#
b110 d
b110 n
b110 p
b110 s
b101 h
b101 l
b101 3"
b101 6"
b10 j
b10 m
b10 |"
b10 ##
b101 i
b101 +"
b101 5"
b101 $#
b101 )#
b10 R
b10 7"
b10 ~"
b10 ="
b11111110000000001000111011100011 B
b11111110000000001000111011100011 g"
b11111110000000001000111011100011 p"
b100100 6
b100100 .#
b100100 0#
b100100 /#
b0 f
b0 x
b0 G"
b0 -#
b0 I
b0 y
b0 T"
b0 i"
b0 M
b0 j"
b0 k"
b100000 _
b100000 Z"
b100000 >#
b10000 Y
b10000 S"
b10000 ?#
b10000 f"
1`
b10000 X
b10000 *"
b10000 A"
b10000 L"
b10000 `"
b10 U
b10 ;"
b10 P"
b10 b"
b1 c
b1 r
b1 F"
b1 X"
0a
0Y"
0S
0e"
b1000 ]
b1000 4"
b1000 J"
b1000 \"
b101 T
b101 R"
b101 '#
b101 d"
b1 =
b1 )"
b1 9"
b1 t"
b1 2"
b1 e
b1 %"
b1 ("
b1 1"
b10 A
b10 &"
b10 ,"
b10 -"
b10 r"
b10 }"
b10 %#
1;
10"
b100100 9
b100100 u
b100100 ,#
b100000 4
b100000 v
b100000 h"
b100000 q"
b100000 +#
b1000 #
1!
#425
0!
#450
b0 b
b0 k
b0 '"
b0 o
b10 -
b10 "#
b10 (#
b10 9#
b10 <#
b10 =#
0)
b0 7
b0 2#
b0 @#
b0 R
b0 7"
b0 ~"
b0 ="
b10 d
b10 n
b10 p
b10 s
b0 h
b0 l
b0 3"
b0 6"
b0 i
b0 +"
b0 5"
b0 $#
b0 )#
b0 j
b0 m
b0 |"
b0 ##
b11111110000000000000110011100011 B
b11111110000000000000110011100011 g"
b11111110000000000000110011100011 p"
b11000 6
b11000 .#
b11000 0#
b11000 /#
b10 A#
b1 /
b1 :"
b1 w"
b1 z"
b1 4#
b10 ,
b10 s"
b10 :#
b10 x"
1.
b10000 =
b10000 )"
b10000 9"
b10000 t"
b10000 2"
b101 e
b101 %"
b101 ("
b101 1"
b11111111111111111111111111111101 A
b11111111111111111111111111111101 &"
b11111111111111111111111111111101 ,"
b11111111111111111111111111111101 -"
b11111111111111111111111111111101 r"
b11111111111111111111111111111101 }"
b11111111111111111111111111111101 %#
0;
00"
b0 _
b0 Z"
b0 >#
b0 Y
b0 S"
b0 ?#
b0 f"
0`
b0 X
b0 *"
b0 A"
b0 L"
b0 `"
b0 U
b0 ;"
b0 P"
b0 b"
b0 W
b0 <"
b0 N"
b0 a"
b0 c
b0 r
b0 F"
b0 X"
b0 ]
b0 4"
b0 J"
b0 \"
b0 T
b0 R"
b0 '#
b0 d"
b0 V
b0 Q"
b0 !#
b0 c"
b11000 9
b11000 u
b11000 ,#
b10100 4
b10100 v
b10100 h"
b10100 q"
b10100 +#
0&
b11000 5
b11000 *#
b11000 1#
b11000 3#
b1001 #
02
1!
#475
0!
